{
    "scpi": "Altixia Cadence XII",
    "display-name": "Altixia Cadence XII",
    "gerant": "Altixia REIM",
    "strategie": "diversifiee",
    "distribution-estimee": null,
    "td-2022": {
        "unit": "percent",
        "value": 5.51
    },
    "td-2021": {
        "unit": "percent",
        "value": 5.15
    },
    "tdvm-2020": {
        "unit": "percent",
        "value": 5.13
    },
    "part-souscription": {
        "unit": "euros",
        "value": 200
    },
    "part-retrait": {
        "unit": "euros",
        "value": 182
    },
    "differentiel-souscription-retrait": {
        "unit": "percent",
        "value": 9
    },
    "valeur-de-reconstitution": {
        "unit": "euros",
        "value": 208.27
    },
    "min-parts-souscription": 10,
    "montant-min-souscription": {
        "unit": "euros",
        "value": 2000
    },
    "delai-de-jouissance": {
        "unit": "mois",
        "value": 5
    },
    "frais-de-gestion": {
        "unit": "percent",
        "value": 10
    },
    "versement-programme": false,
    "tof": {
        "unit": "percent",
        "value": 97.4
    },
    "top": {
        "unit": "percent",
        "value": 98.4
    },
    "nombre-de-locataires": "NA",
    "walb-ans": "2,67",
    "souscriptions": "62\u202f192",
    "retraits": 22,
    "indice-de-liquidite": "Tr\u00e8s bon",
    "isr": false,
    "capitalisation": 139000000,
    "geographie": "\ud83c\uddeb\ud83c\uddf7 France",
    "creation": 2018,
    "endettement": {
        "unit": "percent",
        "value": 15.47
    },
    "url": "https:\/\/www.altixia.fr\/scpi-cadence.php",
    "versement": "Mensuel",
    "displayable": true,
    "featured": null,
    "image-link": null,
    "allow-direct-debit": "No",
    "cashback": {
        "unit": "percent",
        "value": 2.5
    },
    "auto-reinvest": "No",
    "documents": {
        "scpi": "Altixia Cadence XII",
        "ok": true,
        "dernier-rapport-annuel": "https:\/\/www.altixia.fr\/medias\/documentations\/rapport-annuel-2021-altixia-cadence-xii-116.PDF",
        "dernier-bulletin-en-date": "T1",
        "dernier-bulletin-trimestriel": "https:\/\/www.altixia.fr\/medias\/documentations\/bt23-1t-altixia_cadence_xii-158.PDF",
        "dici": "https:\/\/www.altixia.fr\/medias\/documentations\/2022_dic-cadence-xii-119.PDF",
        "note-dinformations": "https:\/\/www.altixia.fr\/medias\/documentations\/2022-06_note-information-statuts_altixia-cadence-xii-121.PDF"
    },
    "geographies": {
        "scpi": "Altixia Cadence XII",
        "ok": true,
        "regions": {
            "unit": "percent",
            "value": 76
        },
        "idf": {
            "unit": "percent",
            "value": 24
        },
        "allemagne": {
            "unit": "percent",
            "value": 0
        },
        "belgique": {
            "unit": "percent",
            "value": 0
        },
        "pays-bas": {
            "unit": "percent",
            "value": 0
        },
        "italie": {
            "unit": "percent",
            "value": 0
        },
        "finlande": {
            "unit": "percent",
            "value": 0
        },
        "irlande": {
            "unit": "percent",
            "value": 0
        },
        "espagne": {
            "unit": "percent",
            "value": 0
        },
        "lituanie": {
            "unit": "percent",
            "value": 0
        },
        "portugal": {
            "unit": "percent",
            "value": 0
        },
        "slovenie": {
            "unit": "percent",
            "value": 0
        },
        "estonie": {
            "unit": "percent",
            "value": 0
        },
        "lettonie": {
            "unit": "percent",
            "value": 0
        },
        "autriche": {
            "unit": "percent",
            "value": 0
        },
        "gde-bretagne": {
            "unit": "percent",
            "value": 0
        },
        "pologne": {
            "unit": "percent",
            "value": 0
        },
        "luxembourg": {
            "unit": "percent",
            "value": 0
        },
        "autres": {
            "unit": "percent",
            "value": 0
        },
        "total": {
            "unit": "percent",
            "value": 100
        }
    },
    "actifs": {
        "scpi": "Altixia Cadence XII",
        "ok": true,
        "sante": {
            "unit": "percent",
            "value": 0
        },
        "residentiel": {
            "unit": "percent",
            "value": 0
        },
        "commerces": {
            "unit": "percent",
            "value": 25
        },
        "bureaux": {
            "unit": "percent",
            "value": 36
        },
        "logistique": {
            "unit": "percent",
            "value": 0
        },
        "locaux-dactivite": {
            "unit": "percent",
            "value": 39
        },
        "hotels": {
            "unit": "percent",
            "value": 0
        },
        "transports": {
            "unit": "percent",
            "value": 0
        },
        "autre": {
            "unit": "percent",
            "value": 0
        },
        "total": {
            "unit": "percent",
            "value": 100
        },
        "nombre-dactifs": 17
    },
    "performance": [
        {
            "scpi": "Altixia Cadence XII",
            "ok": true,
            "annee": 2022,
            "periode": "T3",
            "date": "30\/09\/2022",
            "prix-de-souscription": {
                "unit": "euros",
                "value": 200
            },
            "prix-de-retrait": null,
            "dividende-brut": {
                "unit": "euros",
                "value": 2.76
            }
        },
        {
            "scpi": "Altixia Cadence XII",
            "ok": true,
            "annee": 2022,
            "periode": "T4",
            "date": "31\/12\/2022",
            "prix-de-souscription": {
                "unit": "euros",
                "value": 200
            },
            "prix-de-retrait": null,
            "dividende-brut": {
                "unit": "euros",
                "value": 2.76
            }
        },
        {
            "scpi": "Altixia Cadence XII",
            "ok": true,
            "annee": 2022,
            "periode": "FY",
            "date": "31\/12\/2022",
            "prix-de-souscription": {
                "unit": "euros",
                "value": 200
            },
            "prix-de-retrait": null,
            "dividende-brut": {
                "unit": "euros",
                "value": 11.01
            },
            "dividende-net-de-fiscalite-etrangere": null,
            "distribution": {
                "unit": "percent",
                "value": 5.5
            },
            "revalorisation": null,
            "valeur-de-reconstitution": {
                "unit": "euros",
                "value": 208.27
            }
        },
        {
            "scpi": "Altixia Cadence XII",
            "ok": true,
            "annee": 2023,
            "periode": "T1",
            "date": "31\/03\/2023",
            "prix-de-souscription": {
                "unit": "euros",
                "value": 200
            },
            "prix-de-retrait": null,
            "dividende-brut": {
                "unit": "euros",
                "value": 2.55
            },
            "dividende-net-de-fiscalite-etrangere": null,
            "distribution": null,
            "revalorisation": null,
            "valeur-de-reconstitution": {
                "unit": "euros",
                "value": 208.62
            },
            "valeur-de-realisation": {
                "unit": "euros",
                "value": 178.48
            }
        }
    ],
    "descriptions": [
        {
            "scpi": "Altixia Cadence XII",
            "": true,
            "strategie": null,
            "macro": null,
            "micro": null,
            "conclusion": {
                "unit": "euros",
                "value": 0
            },
            "performances": null,
            "video": "https:\/\/www.youtube.com\/embed\/iC85DNITnDA",
            "thread": "https:\/\/community.louveinvest.com\/t\/altixia-cadence-xii-avis-sur-la-scpi-cadence-xii\/249"
        }
    ],
    "demembrement": [
        {
            "scpi": "Altixia Cadence XII",
            "ok": true,
            "3": {
                "cle": {
                    "unit": "percent",
                    "value": 86.5
                },
                "decote": {
                    "unit": "percent",
                    "value": 14
                }
            },
            "4": {
                "cle": {
                    "unit": "percent",
                    "value": 82.5
                },
                "decote": {
                    "unit": "percent",
                    "value": 18
                }
            },
            "5": {
                "cle": {
                    "unit": "percent",
                    "value": 78.5
                },
                "decote": {
                    "unit": "percent",
                    "value": 22
                }
            },
            "6": {
                "cle": {
                    "unit": "percent",
                    "value": 75.5
                },
                "decote": {
                    "unit": "percent",
                    "value": 25
                }
            },
            "7": {
                "cle": {
                    "unit": "percent",
                    "value": 72.5
                },
                "decote": {
                    "unit": "percent",
                    "value": 28
                }
            },
            "8": {
                "cle": {
                    "unit": "percent",
                    "value": 70.5
                },
                "decote": {
                    "unit": "percent",
                    "value": 30
                }
            },
            "9": {
                "cle": {
                    "unit": "percent",
                    "value": 67.5
                },
                "decote": {
                    "unit": "percent",
                    "value": 33
                }
            },
            "10": {
                "cle": {
                    "unit": "percent",
                    "value": 65.5
                },
                "decote": {
                    "unit": "percent",
                    "value": 35
                }
            },
            "11": {
                "cle": {
                    "unit": "percent",
                    "value": 64.5
                },
                "decote": {
                    "unit": "percent",
                    "value": 36
                }
            },
            "12": {
                "cle": {
                    "unit": "percent",
                    "value": 63.5
                },
                "decote": {
                    "unit": "percent",
                    "value": 37
                }
            },
            "13": {
                "cle": {
                    "unit": "percent",
                    "value": 61.5
                },
                "decote": {
                    "unit": "percent",
                    "value": 39
                }
            },
            "14": {
                "cle": {
                    "unit": "percent",
                    "value": 60.5
                },
                "decote": {
                    "unit": "percent",
                    "value": 40
                }
            },
            "15": {
                "cle": {
                    "unit": "percent",
                    "value": 59.5
                },
                "decote": {
                    "unit": "percent",
                    "value": 41
                }
            },
            "16": {
                "cle": {
                    "unit": "percent",
                    "value": 58.5
                },
                "decote": {
                    "unit": "percent",
                    "value": 42
                }
            },
            "17": {
                "cle": {
                    "unit": "percent",
                    "value": 57.5
                },
                "decote": {
                    "unit": "percent",
                    "value": 43
                }
            },
            "18": {
                "cle": {
                    "unit": "percent",
                    "value": 56.5
                },
                "decote": {
                    "unit": "percent",
                    "value": 44
                }
            },
            "19": {
                "cle": {
                    "unit": "percent",
                    "value": 55.5
                },
                "decote": {
                    "unit": "percent",
                    "value": 45
                }
            },
            "20": {
                "cle": {
                    "unit": "percent",
                    "value": 54.5
                },
                "decote": {
                    "unit": "percent",
                    "value": 46
                }
            }
        }
    ]
}