{
    "scpi": "Buroboutic",
    "display-name": "Buroboutic",
    "gerant": "Fiducial G\u00e9rance",
    "strategie": "diversifiee",
    "distribution-estimee": null,
    "td-2022": {
        "unit": "percent",
        "value": 4.31
    },
    "td-2021": {
        "unit": "percent",
        "value": 4.08
    },
    "tdvm-2020": {
        "unit": "percent",
        "value": 4.27
    },
    "part-souscription": {
        "unit": "euros",
        "value": 267
    },
    "part-retrait": {
        "unit": "euros",
        "value": 240.3
    },
    "differentiel-souscription-retrait": {
        "unit": "percent",
        "value": 10
    },
    "valeur-de-reconstitution": {
        "unit": "euros",
        "value": 256.02
    },
    "min-parts-souscription": 10,
    "montant-min-souscription": {
        "unit": "euros",
        "value": 2670
    },
    "delai-de-jouissance": {
        "unit": "mois",
        "value": 3
    },
    "frais-de-gestion": {
        "unit": "percent",
        "value": 10.8
    },
    "versement-programme": true,
    "tof": {
        "unit": "percent",
        "value": 94.88
    },
    "top": "NA",
    "nombre-de-locataires": 299,
    "walb-ans": "NA",
    "souscriptions": 2653,
    "retraits": "3\u202f754",
    "indice-de-liquidite": "Illiquide",
    "isr": false,
    "capitalisation": 375400000,
    "geographie": "\ud83c\uddeb\ud83c\uddf7 France",
    "creation": 1986,
    "endettement": "NA",
    "url": "https:\/\/www.fiducial-gerance.fr\/Nos-SCPI\/SCPI-BUROBOUTIC-Metropoles",
    "versement": "Trimestriel",
    "displayable": true,
    "featured": null,
    "image-link": "https:\/\/firebasestorage.googleapis.com\/v0\/b\/louvcap-eea66.appspot.com\/o\/public%2FscpiPictures%2Fdiversifie01.jpg?alt=media&token=d859c671-3c18-405c-bf6b-14863459af30",
    "allow-direct-debit": "No",
    "cashback": {
        "unit": "percent",
        "value": 2.5
    },
    "auto-reinvest": "No",
    "documents": {
        "scpi": "Buroboutic",
        "ok": true,
        "dernier-rapport-annuel": "https:\/\/www.fiducial-gerance.fr\/content\/download\/1136\/file\/Buroboutic%20M%C3%A9tropoles%20-%20Rapport%20annuel%202021.pdf",
        "dernier-bulletin-en-date": "S2",
        "dernier-bulletin-trimestriel": "https:\/\/www.fiducial-gerance.fr\/content\/download\/1057\/file\/BSI%20BUROBOUTIC%20S2-2022.pdf",
        "dici": "https:\/\/www.fiducial-gerance.fr\/content\/download\/678\/file\/Buroboutic%20M%C3%A9tropoles%20-%20Document%20d%27Informations%20Cl%C3%A9s.pdf",
        "note-dinformations": "https:\/\/www.fiducial-gerance.fr\/content\/download\/223\/file\/BUROBOUTIC%20-%20Note%20d%27information%20et%20statuts%20%2827.01.17%29.pdf"
    },
    "geographies": {
        "scpi": "Buroboutic",
        "ok": true,
        "regions": {
            "unit": "percent",
            "value": 56
        },
        "idf": {
            "unit": "percent",
            "value": 44
        },
        "allemagne": {
            "unit": "percent",
            "value": 0
        },
        "belgique": {
            "unit": "percent",
            "value": 0
        },
        "pays-bas": {
            "unit": "percent",
            "value": 0
        },
        "italie": {
            "unit": "percent",
            "value": 0
        },
        "finlande": {
            "unit": "percent",
            "value": 0
        },
        "irlande": {
            "unit": "percent",
            "value": 0
        },
        "espagne": {
            "unit": "percent",
            "value": 0
        },
        "lituanie": {
            "unit": "percent",
            "value": 0
        },
        "portugal": {
            "unit": "percent",
            "value": 0
        },
        "slovenie": {
            "unit": "percent",
            "value": 0
        },
        "estonie": {
            "unit": "percent",
            "value": 0
        },
        "lettonie": {
            "unit": "percent",
            "value": 0
        },
        "autriche": {
            "unit": "percent",
            "value": 0
        },
        "gde-bretagne": {
            "unit": "percent",
            "value": 0
        },
        "pologne": {
            "unit": "percent",
            "value": 0
        },
        "luxembourg": {
            "unit": "percent",
            "value": 0
        },
        "autres": {
            "unit": "percent",
            "value": 0
        },
        "total": {
            "unit": "percent",
            "value": 100
        }
    },
    "actifs": {
        "scpi": "Buroboutic",
        "ok": true,
        "sante": {
            "unit": "percent",
            "value": 0
        },
        "residentiel": {
            "unit": "percent",
            "value": 0
        },
        "commerces": {
            "unit": "percent",
            "value": 48
        },
        "bureaux": {
            "unit": "percent",
            "value": 34
        },
        "logistique": {
            "unit": "percent",
            "value": 0
        },
        "locaux-dactivite": {
            "unit": "percent",
            "value": 18
        },
        "hotels": {
            "unit": "percent",
            "value": 0
        },
        "transports": {
            "unit": "percent",
            "value": 0
        },
        "autre": {
            "unit": "percent",
            "value": 0
        },
        "total": {
            "unit": "percent",
            "value": 100
        },
        "nombre-dactifs": 176
    },
    "performance": [
        {
            "scpi": "Buroboutic",
            "ok": true,
            "annee": 2018,
            "periode": "FY",
            "date": "31\/12\/2018",
            "prix-de-souscription": {
                "unit": "euros",
                "value": 267
            },
            "prix-de-retrait": null,
            "dividende-brut": null,
            "dividende-net-de-fiscalite-etrangere": {
                "unit": "euros",
                "value": 11.6
            }
        },
        {
            "scpi": "Buroboutic",
            "ok": true,
            "annee": 2019,
            "periode": "FY",
            "date": "31\/12\/2019",
            "prix-de-souscription": {
                "unit": "euros",
                "value": 267
            },
            "prix-de-retrait": null,
            "dividende-brut": null,
            "dividende-net-de-fiscalite-etrangere": {
                "unit": "euros",
                "value": 11.8
            },
            "distribution": {
                "unit": "percent",
                "value": 4.42
            },
            "revalorisation": {
                "unit": "percent",
                "value": 0
            }
        },
        {
            "scpi": "Buroboutic",
            "ok": true,
            "annee": 2020,
            "periode": "FY",
            "date": "31\/12\/2020",
            "prix-de-souscription": {
                "unit": "euros",
                "value": 267
            },
            "prix-de-retrait": null,
            "dividende-brut": null,
            "dividende-net-de-fiscalite-etrangere": {
                "unit": "euros",
                "value": 11.4
            },
            "distribution": {
                "unit": "percent",
                "value": 4.27
            },
            "revalorisation": {
                "unit": "percent",
                "value": 0
            }
        },
        {
            "scpi": "Buroboutic",
            "ok": true,
            "annee": 2021,
            "periode": "FY",
            "date": "31\/12\/2021",
            "prix-de-souscription": {
                "unit": "euros",
                "value": 267
            },
            "prix-de-retrait": null,
            "dividende-brut": null,
            "dividende-net-de-fiscalite-etrangere": {
                "unit": "euros",
                "value": 10.9
            },
            "distribution": {
                "unit": "percent",
                "value": 4.08
            },
            "revalorisation": {
                "unit": "percent",
                "value": 0
            }
        },
        {
            "scpi": "Buroboutic",
            "ok": true,
            "annee": 2022,
            "periode": "S1",
            "date": "30\/06\/2022",
            "prix-de-souscription": {
                "unit": "euros",
                "value": 267
            },
            "prix-de-retrait": null,
            "dividende-brut": "NA",
            "dividende-net-de-fiscalite-etrangere": null,
            "distribution": null,
            "revalorisation": {
                "unit": "percent",
                "value": 0
            }
        },
        {
            "scpi": "Buroboutic",
            "ok": true,
            "annee": 2022,
            "periode": "T4",
            "date": "31\/12\/2022",
            "prix-de-souscription": {
                "unit": "euros",
                "value": 267
            },
            "prix-de-retrait": null,
            "dividende-brut": {
                "unit": "euros",
                "value": 3.7
            }
        },
        {
            "scpi": "Buroboutic",
            "ok": true,
            "annee": 2022,
            "periode": "FY",
            "date": "31\/12\/2022",
            "prix-de-souscription": {
                "unit": "euros",
                "value": 267
            },
            "prix-de-retrait": null,
            "dividende-brut": {
                "unit": "euros",
                "value": 11.5
            },
            "dividende-net-de-fiscalite-etrangere": null,
            "distribution": {
                "unit": "percent",
                "value": 4.31
            }
        }
    ],
    "descriptions": [
        {
            "scpi": "Buroboutic",
            "": true,
            "strategie": "La SCPI Buroboutic est principalement compos\u00e9e de commerces ainsi que des locaux d\u2019activit\u00e9s et de bureaux  pour assurer une certaine diversit\u00e9. Son patrimoine est \u00e9quitablement distribu\u00e9 entre les r\u00e9gions et l\u2019\u00eele de France.",
            "macro": null,
            "micro": null,
            "conclusion": "Buroboutic a \u00e9t\u00e9 lanc\u00e9 en 1986, elle fait partie des plus anciennes SCPI majoritairement commerce. Cependant son taux de distribution est inf\u00e9rieur \u00e0 la moyenne du march\u00e9 et nous constatons que la valeur de reconstitution est inf\u00e9rieure \u00e0 son prix de part. De fait, nous ne pr\u00e9conisons pas aujourd'hui la souscription \u00e0 cette SCPI. ",
            "performances": null,
            "video": null,
            "thread": "https:\/\/community.louveinvest.com\/t\/focus-scpi-buroboutic-metropoles\/16"
        }
    ],
    "demembrement": [
        {
            "scpi": "Buroboutic",
            "ok": true,
            "3": {
                "cle": {
                    "unit": "percent",
                    "value": 89.5
                },
                "decote": {
                    "unit": "percent",
                    "value": 11
                }
            },
            "4": {
                "cle": {
                    "unit": "percent",
                    "value": 86
                },
                "decote": {
                    "unit": "percent",
                    "value": 14
                }
            },
            "5": {
                "cle": {
                    "unit": "percent",
                    "value": 82.5
                },
                "decote": {
                    "unit": "percent",
                    "value": 18
                }
            },
            "6": {
                "cle": {
                    "unit": "percent",
                    "value": 80.5
                },
                "decote": {
                    "unit": "percent",
                    "value": 20
                }
            },
            "7": {
                "cle": {
                    "unit": "percent",
                    "value": 77
                },
                "decote": {
                    "unit": "percent",
                    "value": 23
                }
            },
            "8": {
                "cle": {
                    "unit": "percent",
                    "value": 75.5
                },
                "decote": {
                    "unit": "percent",
                    "value": 25
                }
            },
            "9": {
                "cle": {
                    "unit": "percent",
                    "value": 73.5
                },
                "decote": {
                    "unit": "percent",
                    "value": 27
                }
            },
            "10": {
                "cle": {
                    "unit": "percent",
                    "value": 69.5
                },
                "decote": {
                    "unit": "percent",
                    "value": 31
                }
            },
            "11": {
                "cle": {
                    "unit": "percent",
                    "value": 69
                },
                "decote": {
                    "unit": "percent",
                    "value": 31
                }
            },
            "12": {
                "cle": {
                    "unit": "percent",
                    "value": 67.5
                },
                "decote": {
                    "unit": "percent",
                    "value": 33
                }
            },
            "13": {
                "cle": {
                    "unit": "percent",
                    "value": 66
                },
                "decote": {
                    "unit": "percent",
                    "value": 34
                }
            },
            "14": {
                "cle": {
                    "unit": "percent",
                    "value": 65
                },
                "decote": {
                    "unit": "percent",
                    "value": 35
                }
            },
            "15": {
                "cle": {
                    "unit": "percent",
                    "value": 64
                },
                "decote": {
                    "unit": "percent",
                    "value": 36
                }
            },
            "16": {
                "cle": {
                    "unit": "percent",
                    "value": 63
                },
                "decote": {
                    "unit": "percent",
                    "value": 37
                }
            },
            "17": {
                "cle": {
                    "unit": "percent",
                    "value": 62
                },
                "decote": {
                    "unit": "percent",
                    "value": 38
                }
            },
            "18": {
                "cle": {
                    "unit": "percent",
                    "value": 61
                },
                "decote": {
                    "unit": "percent",
                    "value": 39
                }
            },
            "19": {
                "cle": {
                    "unit": "percent",
                    "value": 60
                },
                "decote": {
                    "unit": "percent",
                    "value": 40
                }
            },
            "20": {
                "cle": {
                    "unit": "percent",
                    "value": 59
                },
                "decote": {
                    "unit": "percent",
                    "value": 41
                }
            }
        }
    ]
}