{
    "scpi": "Coeur de Ville",
    "display-name": "Coeur de Ville",
    "gerant": "Sogenial",
    "strategie": "commerces",
    "distribution-estimee": null,
    "td-2022": {
        "unit": "percent",
        "value": 5.3
    },
    "td-2021": {
        "unit": "percent",
        "value": 5.3
    },
    "tdvm-2020": {
        "unit": "percent",
        "value": 5.3
    },
    "part-souscription": {
        "unit": "euros",
        "value": 210
    },
    "part-retrait": {
        "unit": "euros",
        "value": 184.8
    },
    "differentiel-souscription-retrait": {
        "unit": "percent",
        "value": 12
    },
    "valeur-de-reconstitution": {
        "unit": "euros",
        "value": 218.9
    },
    "min-parts-souscription": 10,
    "montant-min-souscription": {
        "unit": "euros",
        "value": 2100
    },
    "delai-de-jouissance": {
        "unit": "mois",
        "value": 3
    },
    "frais-de-gestion": {
        "unit": "percent",
        "value": 9.6
    },
    "versement-programme": true,
    "tof": {
        "unit": "percent",
        "value": 93.6
    },
    "top": {
        "unit": "percent",
        "value": 91.79
    },
    "nombre-de-locataires": 28,
    "walb-ans": "NA",
    "souscriptions": "4\u202f915",
    "retraits": null,
    "indice-de-liquidite": "Tr\u00e8s bon",
    "isr": false,
    "capitalisation": 22200000,
    "geographie": "\ud83c\uddeb\ud83c\uddf7 France",
    "creation": 2013,
    "endettement": {
        "unit": "percent",
        "value": 26.9
    },
    "url": "http:\/\/sogenial.fr\/scpi-coeur-de-ville\/",
    "versement": "Trimestriel",
    "displayable": true,
    "featured": null,
    "image-link": "https:\/\/firebasestorage.googleapis.com\/v0\/b\/louvcap-eea66.appspot.com\/o\/public%2FscpiPictures%2Fcommerce07.jpg?alt=media&token=095ec723-5f1d-464c-86bf-17a032478321",
    "allow-direct-debit": "No",
    "cashback": {
        "unit": "percent",
        "value": 2.5
    },
    "auto-reinvest": "Yes",
    "documents": {
        "scpi": "Coeur de Ville",
        "ok": true,
        "dernier-rapport-annuel": "https:\/\/sogenial.fr\/wp-content\/uploads\/2022\/06\/Rapport_Annuel_2021_Coeur_de_Ville.pdf",
        "dernier-bulletin-en-date": "T4",
        "dernier-bulletin-trimestriel": "http:\/\/sogenial.fr\/wp-content\/uploads\/2023\/02\/Sogenial_Immobilier_Bulletin-CDV-4T2022.pdf",
        "dici": "http:\/\/www.sogenial.fr\/wp-content\/uploads\/2021\/02\/DIC-PRIIPS-CDV.pdf",
        "note-dinformations": "http:\/\/sogenial.fr\/wp-content\/uploads\/2021\/08\/Note-information_CDV_08-2021.pdf"
    },
    "geographies": {
        "scpi": "Coeur De Ville",
        "ok": true,
        "regions": {
            "unit": "percent",
            "value": 96.1
        },
        "idf": {
            "unit": "percent",
            "value": 3.9
        },
        "allemagne": {
            "unit": "percent",
            "value": 0
        },
        "belgique": {
            "unit": "percent",
            "value": 0
        },
        "pays-bas": {
            "unit": "percent",
            "value": 0
        },
        "italie": {
            "unit": "percent",
            "value": 0
        },
        "finlande": {
            "unit": "percent",
            "value": 0
        },
        "irlande": {
            "unit": "percent",
            "value": 0
        },
        "espagne": {
            "unit": "percent",
            "value": 0
        },
        "lituanie": {
            "unit": "percent",
            "value": 0
        },
        "portugal": {
            "unit": "percent",
            "value": 0
        },
        "slovenie": {
            "unit": "percent",
            "value": 0
        },
        "estonie": {
            "unit": "percent",
            "value": 0
        },
        "lettonie": {
            "unit": "percent",
            "value": 0
        },
        "autriche": {
            "unit": "percent",
            "value": 0
        },
        "gde-bretagne": {
            "unit": "percent",
            "value": 0
        },
        "pologne": {
            "unit": "percent",
            "value": 0
        },
        "luxembourg": {
            "unit": "percent",
            "value": 0
        },
        "autres": {
            "unit": "percent",
            "value": 0
        },
        "total": {
            "unit": "percent",
            "value": 100
        }
    },
    "actifs": {
        "scpi": "Coeur de Ville",
        "ok": true,
        "sante": {
            "unit": "percent",
            "value": 3.77
        },
        "residentiel": {
            "unit": "percent",
            "value": 0
        },
        "commerces": {
            "unit": "percent",
            "value": 78.6
        },
        "bureaux": {
            "unit": "percent",
            "value": 17.63
        },
        "logistique": {
            "unit": "percent",
            "value": 0
        },
        "locaux-dactivite": {
            "unit": "percent",
            "value": 0
        },
        "hotels": {
            "unit": "percent",
            "value": 0
        },
        "transports": {
            "unit": "percent",
            "value": 0
        },
        "autre": {
            "unit": "percent",
            "value": 0
        },
        "total": {
            "unit": "percent",
            "value": 100
        },
        "nombre-dactifs": 26
    },
    "performance": [
        {
            "scpi": "Coeur De Ville",
            "ok": true,
            "annee": 2013,
            "periode": "FY",
            "date": "31\/12\/2013",
            "prix-de-souscription": {
                "unit": "euros",
                "value": 200
            },
            "prix-de-retrait": null,
            "dividende-brut": null,
            "dividende-net-de-fiscalite-etrangere": {
                "unit": "euros",
                "value": 0
            }
        },
        {
            "scpi": "Coeur De Ville",
            "ok": true,
            "annee": 2014,
            "periode": "FY",
            "date": "31\/12\/2014",
            "prix-de-souscription": {
                "unit": "euros",
                "value": 200
            },
            "prix-de-retrait": null,
            "dividende-brut": null,
            "dividende-net-de-fiscalite-etrangere": {
                "unit": "euros",
                "value": 8.8
            },
            "distribution": {
                "unit": "percent",
                "value": 4.4
            },
            "revalorisation": {
                "unit": "percent",
                "value": 0
            }
        },
        {
            "scpi": "Coeur De Ville",
            "ok": true,
            "annee": 2015,
            "periode": "FY",
            "date": "31\/12\/2015",
            "prix-de-souscription": {
                "unit": "euros",
                "value": 200
            },
            "prix-de-retrait": null,
            "dividende-brut": null,
            "dividende-net-de-fiscalite-etrangere": {
                "unit": "euros",
                "value": 9.44
            },
            "distribution": {
                "unit": "percent",
                "value": 4.72
            },
            "revalorisation": {
                "unit": "percent",
                "value": 0
            }
        },
        {
            "scpi": "Coeur De Ville",
            "ok": true,
            "annee": 2016,
            "periode": "FY",
            "date": "31\/12\/2016",
            "prix-de-souscription": {
                "unit": "euros",
                "value": 200
            },
            "prix-de-retrait": null,
            "dividende-brut": null,
            "dividende-net-de-fiscalite-etrangere": {
                "unit": "euros",
                "value": 10
            },
            "distribution": {
                "unit": "percent",
                "value": 5
            }
        },
        {
            "scpi": "Coeur De Ville",
            "ok": true,
            "annee": 2017,
            "periode": "FY",
            "date": "31\/12\/2017",
            "prix-de-souscription": {
                "unit": "euros",
                "value": 200
            },
            "prix-de-retrait": null,
            "dividende-brut": null,
            "dividende-net-de-fiscalite-etrangere": {
                "unit": "euros",
                "value": 10
            },
            "distribution": {
                "unit": "percent",
                "value": 5
            },
            "revalorisation": {
                "unit": "percent",
                "value": 0
            }
        },
        {
            "scpi": "Coeur De Ville",
            "ok": true,
            "annee": 2018,
            "periode": "FY",
            "date": "31\/12\/2018",
            "prix-de-souscription": {
                "unit": "euros",
                "value": 203
            },
            "prix-de-retrait": null,
            "dividende-brut": null,
            "dividende-net-de-fiscalite-etrangere": {
                "unit": "euros",
                "value": 10.24
            },
            "distribution": {
                "unit": "percent",
                "value": 5.12
            },
            "revalorisation": {
                "unit": "percent",
                "value": 1.5
            }
        },
        {
            "scpi": "Coeur De Ville",
            "ok": true,
            "annee": 2019,
            "periode": "FY",
            "date": "31\/12\/2019",
            "prix-de-souscription": {
                "unit": "euros",
                "value": 206
            },
            "prix-de-retrait": null,
            "dividende-brut": null,
            "dividende-net-de-fiscalite-etrangere": {
                "unit": "euros",
                "value": 10.78
            },
            "distribution": {
                "unit": "percent",
                "value": 5.31
            }
        },
        {
            "scpi": "Coeur De Ville",
            "ok": true,
            "annee": 2020,
            "periode": "FY",
            "date": "31\/12\/2020",
            "prix-de-souscription": {
                "unit": "euros",
                "value": 206
            },
            "prix-de-retrait": null,
            "dividende-brut": null,
            "dividende-net-de-fiscalite-etrangere": {
                "unit": "euros",
                "value": 10.91
            },
            "distribution": {
                "unit": "percent",
                "value": 5.3
            },
            "revalorisation": {
                "unit": "percent",
                "value": 0
            }
        },
        {
            "scpi": "Coeur De Ville",
            "ok": true,
            "annee": 2021,
            "periode": "FY",
            "date": "31\/12\/2021",
            "prix-de-souscription": {
                "unit": "euros",
                "value": 206
            },
            "prix-de-retrait": null,
            "dividende-brut": null,
            "dividende-net-de-fiscalite-etrangere": {
                "unit": "euros",
                "value": 10.92
            },
            "distribution": {
                "unit": "percent",
                "value": 5.3
            },
            "revalorisation": {
                "unit": "percent",
                "value": 0
            }
        },
        {
            "scpi": "Coeur de Ville",
            "ok": true,
            "annee": 2022,
            "periode": "T3",
            "date": "30\/09\/2022",
            "prix-de-souscription": {
                "unit": "euros",
                "value": 210
            },
            "prix-de-retrait": null,
            "dividende-brut": {
                "unit": "euros",
                "value": 2.73
            },
            "dividende-net-de-fiscalite-etrangere": null,
            "distribution": null,
            "revalorisation": {
                "unit": "percent",
                "value": 1.94
            }
        },
        {
            "scpi": "Coeur de Ville",
            "ok": true,
            "annee": 2022,
            "periode": "T4",
            "date": "31\/12\/2022",
            "prix-de-souscription": {
                "unit": "euros",
                "value": 210
            },
            "prix-de-retrait": null,
            "dividende-brut": {
                "unit": "euros",
                "value": 2.73
            }
        },
        {
            "scpi": "Coeur de Ville",
            "ok": true,
            "annee": 2022,
            "periode": "FY",
            "date": "31\/12\/2022",
            "prix-de-souscription": {
                "unit": "euros",
                "value": 210
            },
            "prix-de-retrait": null,
            "dividende-brut": {
                "unit": "euros",
                "value": 10.92
            },
            "dividende-net-de-fiscalite-etrangere": null,
            "distribution": {
                "unit": "percent",
                "value": 5.3
            }
        }
    ],
    "evenements": [
        {
            "scpi": "Coeur de Ville",
            "ok": null,
            "evenement": "priceUpdate",
            "date": "01\/06\/2022",
            "data": 210
        },
        {
            "scpi": "Coeur de Ville",
            "ok": null,
            "evenement": "priceUpdate",
            "date": "01\/07\/2022",
            "data": 210
        }
    ],
    "descriptions": [
        {
            "scpi": "Coeur de Ville",
            "": true,
            "strategie": "La SCPI Coeur de Ville investit principalement dans la r\u00e9gion Parisienne et dans les grandes m\u00e9tropoles r\u00e9gionales en privil\u00e9giant les commerces.",
            "macro": "Les commerces ont fortement \u00e9t\u00e9 impact\u00e9s par le Covid, la SCPI a r\u00e9ussi \u00e0 montrer sa r\u00e9silience pendant cette p\u00e9riode (aucun changement de performance). Depuis le coronavirus, la situation s'est d\u00e9bloqu\u00e9e avec une collecte sur les SCPI de commerces qui augmente. Cela permet de poursuivre des acquisitions en r\u00e9gions, dans des villes secondaires (Limoges, Montpellier, ..) avec un focus sur les commerces alimentaires, jug\u00e9s moins risqu\u00e9s et plus rentables par les investisseurs.",
            "micro": {
                "unit": "percent",
                "value": 0
            },
            "conclusion": "Dans une logique de diversification, C\u0153ur de Ville est int\u00e9ressante. \u00c0 comparer avec Cristal Rente, le rendement est tr\u00e8s bon, int\u00e9ressante en pleine propri\u00e9t\u00e9. Sa faible capitalisation peut faire un peu peur.  ",
            "performances": null,
            "video": null,
            "thread": "https:\/\/community.louveinvest.com\/t\/focus-scpi-coeur-de-ville\/41"
        }
    ],
    "demembrement": [
        {
            "scpi": "Coeur de Ville",
            "ok": true,
            "3": {
                "cle": {
                    "unit": "percent",
                    "value": 87.5
                },
                "decote": {
                    "unit": "percent",
                    "value": 13
                }
            },
            "4": {
                "cle": {
                    "unit": "percent",
                    "value": 84
                },
                "decote": {
                    "unit": "percent",
                    "value": 16
                }
            },
            "5": {
                "cle": {
                    "unit": "percent",
                    "value": 80
                },
                "decote": {
                    "unit": "percent",
                    "value": 20
                }
            },
            "6": {
                "cle": {
                    "unit": "percent",
                    "value": 76.5
                },
                "decote": {
                    "unit": "percent",
                    "value": 24
                }
            },
            "7": {
                "cle": {
                    "unit": "percent",
                    "value": 73
                },
                "decote": {
                    "unit": "percent",
                    "value": 27
                }
            },
            "8": {
                "cle": {
                    "unit": "percent",
                    "value": 71.5
                },
                "decote": {
                    "unit": "percent",
                    "value": 29
                }
            },
            "9": {
                "cle": {
                    "unit": "percent",
                    "value": 70
                },
                "decote": {
                    "unit": "percent",
                    "value": 30
                }
            },
            "10": {
                "cle": {
                    "unit": "percent",
                    "value": 67
                },
                "decote": {
                    "unit": "percent",
                    "value": 33
                }
            },
            "11": {
                "cle": {
                    "unit": "percent",
                    "value": 65.5
                },
                "decote": {
                    "unit": "percent",
                    "value": 35
                }
            },
            "12": {
                "cle": {
                    "unit": "percent",
                    "value": 64
                },
                "decote": {
                    "unit": "percent",
                    "value": 36
                }
            },
            "13": {
                "cle": {
                    "unit": "percent",
                    "value": 63
                },
                "decote": {
                    "unit": "percent",
                    "value": 37
                }
            },
            "14": {
                "cle": {
                    "unit": "percent",
                    "value": 62
                },
                "decote": {
                    "unit": "percent",
                    "value": 38
                }
            },
            "15": {
                "cle": {
                    "unit": "percent",
                    "value": 61
                },
                "decote": {
                    "unit": "percent",
                    "value": 39
                }
            },
            "16": {
                "cle": {
                    "unit": "percent",
                    "value": 60
                },
                "decote": {
                    "unit": "percent",
                    "value": 40
                }
            },
            "17": {
                "cle": {
                    "unit": "percent",
                    "value": 59
                },
                "decote": {
                    "unit": "percent",
                    "value": 41
                }
            },
            "18": {
                "cle": {
                    "unit": "percent",
                    "value": 58
                },
                "decote": {
                    "unit": "percent",
                    "value": 42
                }
            },
            "19": {
                "cle": {
                    "unit": "percent",
                    "value": 57
                },
                "decote": {
                    "unit": "percent",
                    "value": 43
                }
            },
            "20": {
                "cle": {
                    "unit": "percent",
                    "value": 56
                },
                "decote": {
                    "unit": "percent",
                    "value": 44
                }
            }
        }
    ]
}