{
    "scpi": "Corum Eurion",
    "display-name": "Corum Eurion",
    "gerant": "Corum AM",
    "strategie": "bureaux",
    "distribution-estimee": null,
    "td-2022": {
        "unit": "percent",
        "value": 6.47
    },
    "td-2021": {
        "unit": "percent",
        "value": 6.12
    },
    "tdvm-2020": {
        "unit": "percent",
        "value": 10.4
    },
    "part-souscription": {
        "unit": "euros",
        "value": 215
    },
    "part-retrait": {
        "unit": "euros",
        "value": 189.2
    },
    "differentiel-souscription-retrait": {
        "unit": "percent",
        "value": 12
    },
    "valeur-de-reconstitution": {
        "unit": "euros",
        "value": 222.55
    },
    "min-parts-souscription": 1,
    "montant-min-souscription": {
        "unit": "euros",
        "value": 215
    },
    "delai-de-jouissance": {
        "unit": "mois",
        "value": 5
    },
    "frais-de-gestion": {
        "unit": "percent",
        "value": 13.2
    },
    "versement-programme": true,
    "tof": {
        "unit": "percent",
        "value": 100.63
    },
    "top": {
        "unit": "percent",
        "value": 98.87
    },
    "nombre-de-locataires": 61,
    "walb-ans": "7,17",
    "souscriptions": "587\u202f949",
    "retraits": "3\u202f641",
    "indice-de-liquidite": "Tr\u00e8s bon",
    "isr": true,
    "capitalisation": 890000000,
    "geographie": "Europe et International",
    "creation": 2020,
    "endettement": {
        "unit": "percent",
        "value": 27
    },
    "url": "https:\/\/www.corum.fr\/nos-scpi\/eurion\/documents",
    "versement": "Mensuel",
    "displayable": false,
    "featured": null,
    "image-link": "https:\/\/firebasestorage.googleapis.com\/v0\/b\/louvcap-eea66.appspot.com\/o\/public%2FscpiPictures%2Fdiversifie04.jpg?alt=media&token=c0869d18-7420-41ea-a1ea-cc1c0ae80580",
    "allow-direct-debit": "No",
    "cashback": {
        "unit": "percent",
        "value": 0
    },
    "auto-reinvest": "No",
    "documents": {
        "scpi": "Corum Eurion",
        "ok": true,
        "dernier-rapport-annuel": "https:\/\/www.corum.fr\/sites\/default\/files\/2023-03\/CORUM%20Eurion%20-%20Rapport%20annuel%202022.pdf",
        "dernier-bulletin-en-date": "T1",
        "dernier-bulletin-trimestriel": "https:\/\/www.corum.fr\/sites\/default\/files\/2023-04\/CORUM%20Eurion%20-%20Fil%20d%27Actualit%C3%A9s%202023%20-T1%20%28Bulletin%20d%27Information%29-.pdf",
        "dici": "https:\/\/www.corum.fr\/sites\/default\/files\/2022-02\/CORUM%20Eurion%20-%20DIC_8.pdf",
        "note-dinformations": "https:\/\/www.corum.fr\/sites\/default\/files\/2021-08\/CORUM%20Eurion%20-%20Note%20d%27information.pdf"
    },
    "geographies": {
        "scpi": "Corum Eurion",
        "ok": true,
        "regions": {
            "unit": "percent",
            "value": 0
        },
        "idf": {
            "unit": "percent",
            "value": 0
        },
        "allemagne": {
            "unit": "percent",
            "value": 0
        },
        "belgique": {
            "unit": "percent",
            "value": 0
        },
        "pays-bas": {
            "unit": "percent",
            "value": 30
        },
        "italie": {
            "unit": "percent",
            "value": 10
        },
        "finlande": {
            "unit": "percent",
            "value": 13
        },
        "irlande": {
            "unit": "percent",
            "value": 27
        },
        "espagne": {
            "unit": "percent",
            "value": 13
        },
        "lituanie": {
            "unit": "percent",
            "value": 0
        },
        "portugal": {
            "unit": "percent",
            "value": 5
        },
        "slovenie": {
            "unit": "percent",
            "value": 0
        },
        "estonie": {
            "unit": "percent",
            "value": 0
        },
        "lettonie": {
            "unit": "percent",
            "value": 2
        },
        "autriche": {
            "unit": "percent",
            "value": 0
        },
        "gde-bretagne": {
            "unit": "percent",
            "value": 0
        },
        "pologne": {
            "unit": "percent",
            "value": 0
        },
        "luxembourg": {
            "unit": "percent",
            "value": 0
        },
        "autres": {
            "unit": "percent",
            "value": 0
        },
        "total": {
            "unit": "percent",
            "value": 100
        }
    },
    "actifs": {
        "scpi": "Corum Eurion",
        "ok": true,
        "sante": {
            "unit": "percent",
            "value": 0
        },
        "residentiel": {
            "unit": "percent",
            "value": 0
        },
        "commerces": {
            "unit": "percent",
            "value": 3
        },
        "bureaux": {
            "unit": "percent",
            "value": 91
        },
        "logistique": {
            "unit": "percent",
            "value": 6
        },
        "locaux-dactivite": {
            "unit": "percent",
            "value": 0
        },
        "hotels": {
            "unit": "percent",
            "value": 0
        },
        "transports": {
            "unit": "percent",
            "value": 0
        },
        "autre": {
            "unit": "percent",
            "value": 0
        },
        "total": {
            "unit": "percent",
            "value": 100
        },
        "nombre-dactifs": 29
    },
    "performance": [
        {
            "scpi": "Corum Eurion",
            "ok": true,
            "annee": 2020,
            "periode": "FY",
            "date": "31\/12\/2020",
            "prix-de-souscription": {
                "unit": "euros",
                "value": 200
            },
            "prix-de-retrait": null,
            "dividende-brut": {
                "unit": "euros",
                "value": 20.79
            },
            "dividende-net-de-fiscalite-etrangere": {
                "unit": "euros",
                "value": 17.76
            },
            "distribution": {
                "unit": "percent",
                "value": 10.4
            }
        },
        {
            "scpi": "Corum Eurion",
            "ok": true,
            "annee": 2021,
            "periode": "FY",
            "date": "31\/12\/2021",
            "prix-de-souscription": {
                "unit": "euros",
                "value": 204
            },
            "prix-de-retrait": null,
            "dividende-brut": {
                "unit": "euros",
                "value": 12.23
            },
            "dividende-net-de-fiscalite-etrangere": {
                "unit": "euros",
                "value": 9.54
            },
            "distribution": {
                "unit": "percent",
                "value": 6.12
            },
            "revalorisation": {
                "unit": "percent",
                "value": 2
            }
        },
        {
            "scpi": "Corum Eurion",
            "ok": true,
            "annee": 2022,
            "periode": "T3",
            "date": "30\/09\/2022",
            "prix-de-souscription": {
                "unit": "euros",
                "value": 215
            },
            "prix-de-retrait": null,
            "dividende-brut": {
                "unit": "euros",
                "value": 3.35
            },
            "dividende-net-de-fiscalite-etrangere": null,
            "distribution": null,
            "revalorisation": {
                "unit": "percent",
                "value": 5.39
            }
        },
        {
            "scpi": "Corum Eurion",
            "ok": true,
            "annee": 2022,
            "periode": "T4",
            "date": "31\/12\/2022",
            "prix-de-souscription": {
                "unit": "euros",
                "value": 215
            },
            "prix-de-retrait": null,
            "dividende-brut": {
                "unit": "euros",
                "value": 3.37
            },
            "dividende-net-de-fiscalite-etrangere": {
                "unit": "euros",
                "value": 2.75
            },
            "distribution": null,
            "revalorisation": {
                "unit": "percent",
                "value": 0
            }
        },
        {
            "scpi": "Corum Eurion",
            "ok": true,
            "annee": 2022,
            "periode": "FY",
            "date": "31\/12\/2022",
            "prix-de-souscription": {
                "unit": "euros",
                "value": 215
            },
            "prix-de-retrait": null,
            "dividende-brut": {
                "unit": "euros",
                "value": 13.19
            },
            "dividende-net-de-fiscalite-etrangere": null,
            "distribution": {
                "unit": "percent",
                "value": 6.47
            },
            "revalorisation": null,
            "valeur-de-reconstitution": {
                "unit": "euros",
                "value": 225.41
            }
        },
        {
            "scpi": "Corum Eurion",
            "ok": true,
            "annee": 2023,
            "periode": "T1",
            "date": "31\/03\/2023",
            "prix-de-souscription": {
                "unit": "euros",
                "value": 215
            },
            "prix-de-retrait": null,
            "dividende-brut": {
                "unit": "euros",
                "value": 3.1
            },
            "dividende-net-de-fiscalite-etrangere": {
                "unit": "euros",
                "value": 2.47
            },
            "distribution": null,
            "revalorisation": null,
            "valeur-de-reconstitution": {
                "unit": "euros",
                "value": 222.55
            },
            "valeur-de-realisation": {
                "unit": "euros",
                "value": 180.93
            }
        }
    ],
    "evenements": [
        {
            "scpi": "Corum Eurion",
            "ok": null,
            "evenement": "priceUpdate",
            "date": "01\/07\/2022",
            "data": 215
        }
    ],
    "descriptions": [
        {
            "scpi": "Corum Eurion",
            "": true,
            "strategie": "Corum Eurion investit en Europe dans diff\u00e9rents pays et vise principalement des actifs d'immobilier de bureaux. Sa r\u00e9partition g\u00e9ographique est large m\u00eame si la plus grande partie de son capital est investie en Irlande et en Finlande."
        }
    ],
    "demembrement": [
        {
            "scpi": "Corum Eurion",
            "ok": true,
            "3": {
                "cle": {
                    "unit": "percent",
                    "value": 87
                },
                "decote": {
                    "unit": "percent",
                    "value": 13
                }
            },
            "4": {
                "cle": {
                    "unit": "percent",
                    "value": 84
                },
                "decote": {
                    "unit": "percent",
                    "value": 16
                }
            },
            "5": {
                "cle": {
                    "unit": "percent",
                    "value": 80
                },
                "decote": {
                    "unit": "percent",
                    "value": 20
                }
            },
            "6": {
                "cle": {
                    "unit": "percent",
                    "value": 78
                },
                "decote": {
                    "unit": "percent",
                    "value": 22
                }
            },
            "7": {
                "cle": {
                    "unit": "percent",
                    "value": 76
                },
                "decote": {
                    "unit": "percent",
                    "value": 24
                }
            },
            "8": {
                "cle": {
                    "unit": "percent",
                    "value": 75
                },
                "decote": {
                    "unit": "percent",
                    "value": 25
                }
            },
            "9": {
                "cle": {
                    "unit": "percent",
                    "value": 73
                },
                "decote": {
                    "unit": "percent",
                    "value": 27
                }
            },
            "10": {
                "cle": {
                    "unit": "percent",
                    "value": 71
                },
                "decote": {
                    "unit": "percent",
                    "value": 29
                }
            },
            "11": {
                "cle": {
                    "unit": "percent",
                    "value": 69
                },
                "decote": {
                    "unit": "percent",
                    "value": 31
                }
            },
            "12": {
                "cle": {
                    "unit": "percent",
                    "value": 67
                },
                "decote": {
                    "unit": "percent",
                    "value": 33
                }
            },
            "13": {
                "cle": {
                    "unit": "percent",
                    "value": 66
                },
                "decote": {
                    "unit": "percent",
                    "value": 34
                }
            },
            "14": {
                "cle": {
                    "unit": "percent",
                    "value": 65
                },
                "decote": {
                    "unit": "percent",
                    "value": 35
                }
            },
            "15": {
                "cle": {
                    "unit": "percent",
                    "value": 64
                },
                "decote": {
                    "unit": "percent",
                    "value": 36
                }
            },
            "16": {
                "cle": {
                    "unit": "percent",
                    "value": 63
                },
                "decote": {
                    "unit": "percent",
                    "value": 37
                }
            },
            "17": {
                "cle": {
                    "unit": "percent",
                    "value": 62
                },
                "decote": {
                    "unit": "percent",
                    "value": 38
                }
            },
            "18": {
                "cle": {
                    "unit": "percent",
                    "value": 61
                },
                "decote": {
                    "unit": "percent",
                    "value": 39
                }
            },
            "19": {
                "cle": {
                    "unit": "percent",
                    "value": 60
                },
                "decote": {
                    "unit": "percent",
                    "value": 40
                }
            },
            "20": {
                "cle": {
                    "unit": "percent",
                    "value": 59
                },
                "decote": {
                    "unit": "percent",
                    "value": 41
                }
            }
        }
    ]
}