{
    "scpi": "Epargne Pierre Europe",
    "display-name": "Epargne Pierre Europe",
    "gerant": "Atland Voisin",
    "strategie": "diversifiee",
    "distribution-estimee": {
        "unit": "percent",
        "value": 5
    },
    "td-2022": null,
    "td-2021": null,
    "tdvm-2020": null,
    "part-souscription": {
        "unit": "euros",
        "value": 200
    },
    "part-retrait": {
        "unit": "euros",
        "value": 176
    },
    "differentiel-souscription-retrait": {
        "unit": "percent",
        "value": 12
    },
    "valeur-de-reconstitution": null,
    "min-parts-souscription": 30,
    "montant-min-souscription": {
        "unit": "euros",
        "value": 6000
    },
    "delai-de-jouissance": {
        "unit": "mois",
        "value": 3
    },
    "frais-de-gestion": {
        "unit": "percent",
        "value": 12
    },
    "versement-programme": false,
    "tof": null,
    "top": null,
    "nombre-de-locataires": null,
    "walb-ans": null,
    "souscriptions": null,
    "retraits": null,
    "indice-de-liquidite": null,
    "isr": false,
    "capitalisation": null,
    "geographie": "\ud83c\uddea\ud83c\uddfa Europe",
    "creation": 2022,
    "endettement": null,
    "url": "https:\/\/atland-voisin.com\/scpi\/epargne-pierre-europe\/",
    "versement": "Trimestriel",
    "displayable": true,
    "featured": null,
    "image-link": "https:\/\/firebasestorage.googleapis.com\/v0\/b\/louvcap-eea66.appspot.com\/o\/public%2FscpiPictures%2Fdiversifie09.jpg?alt=media&token=b8904020-6bfc-4542-8a20-345fa76b9a5f",
    "allow-direct-debit": "No",
    "cashback": {
        "unit": "percent",
        "value": 2.5
    },
    "auto-reinvest": "Yes",
    "documents": {
        "scpi": "Epargne Pierre Europe",
        "ok": true,
        "dernier-rapport-annuel": null,
        "dernier-bulletin-en-date": null,
        "dernier-bulletin-trimestriel": null,
        "dici": "https:\/\/atland-voisin.com\/wp-content\/uploads\/2022\/12\/DIC-EPE-30-09-22.pdf",
        "note-dinformations": "https:\/\/atland-voisin.com\/wp-content\/uploads\/2022\/12\/20221110_EPE_Note-information-V-DEF.pdf"
    },
    "geographies": {
        "scpi": "Epargne Pierre Europe",
        "ok": true,
        "regions": {
            "unit": "percent",
            "value": 0
        },
        "idf": {
            "unit": "percent",
            "value": 0
        },
        "allemagne": {
            "unit": "percent",
            "value": 0
        },
        "belgique": {
            "unit": "percent",
            "value": 0
        },
        "pays-bas": {
            "unit": "percent",
            "value": 0
        },
        "italie": {
            "unit": "percent",
            "value": 0
        },
        "finlande": {
            "unit": "percent",
            "value": 0
        },
        "irlande": {
            "unit": "percent",
            "value": 0
        },
        "espagne": {
            "unit": "percent",
            "value": 0
        },
        "lituanie": {
            "unit": "percent",
            "value": 0
        },
        "portugal": {
            "unit": "percent",
            "value": 0
        },
        "slovenie": {
            "unit": "percent",
            "value": 0
        },
        "estonie": {
            "unit": "percent",
            "value": 0
        },
        "lettonie": {
            "unit": "percent",
            "value": 0
        },
        "autriche": {
            "unit": "percent",
            "value": 0
        },
        "gde-bretagne": {
            "unit": "percent",
            "value": 0
        },
        "pologne": {
            "unit": "percent",
            "value": 0
        },
        "luxembourg": {
            "unit": "percent",
            "value": 0
        },
        "autres": {
            "unit": "percent",
            "value": 100
        },
        "total": {
            "unit": "percent",
            "value": 100
        }
    },
    "actifs": {
        "scpi": "Epargne Pierre Europe",
        "ok": true,
        "sante": {
            "unit": "percent",
            "value": 0
        },
        "residentiel": {
            "unit": "percent",
            "value": 0
        },
        "commerces": {
            "unit": "percent",
            "value": 33
        },
        "bureaux": {
            "unit": "percent",
            "value": 0
        },
        "logistique": {
            "unit": "percent",
            "value": 0
        },
        "locaux-dactivite": {
            "unit": "percent",
            "value": 67
        },
        "hotels": {
            "unit": "percent",
            "value": 0
        },
        "transports": {
            "unit": "percent",
            "value": 0
        },
        "autre": {
            "unit": "percent",
            "value": 0
        },
        "total": {
            "unit": "percent",
            "value": 100
        },
        "nombre-dactifs": 3
    },
    "descriptions": [
        {
            "scpi": "Epargne Pierre Europe",
            "": true,
            "strategie": null,
            "macro": null,
            "micro": null,
            "conclusion": "Epargne Pierre Europe est une SCPI int\u00e9ressante pour diversifier un portefeuille de SCPI europ\u00e9ennes. L'exp\u00e9rience de la soci\u00e9t\u00e9 de gestion rassure sur les choix d'acquisition et la performance long-terme de la SCPI. On vous conseille cette SCPI pour l'Europe."
        }
    ],
    "demembrement": [
        {
            "scpi": "Epargne Pierre Europe",
            "ok": true,
            "3": {
                "cle": {
                    "unit": "percent",
                    "value": 88.5
                },
                "decote": {
                    "unit": "percent",
                    "value": 12
                }
            },
            "4": {
                "cle": {
                    "unit": "percent",
                    "value": 84.5
                },
                "decote": {
                    "unit": "percent",
                    "value": 16
                }
            },
            "5": {
                "cle": {
                    "unit": "percent",
                    "value": 81.5
                },
                "decote": {
                    "unit": "percent",
                    "value": 19
                }
            },
            "6": {
                "cle": {
                    "unit": "percent",
                    "value": 79.5
                },
                "decote": {
                    "unit": "percent",
                    "value": 21
                }
            },
            "7": {
                "cle": {
                    "unit": "percent",
                    "value": 76.5
                },
                "decote": {
                    "unit": "percent",
                    "value": 24
                }
            },
            "8": {
                "cle": {
                    "unit": "percent",
                    "value": 74.5
                },
                "decote": {
                    "unit": "percent",
                    "value": 26
                }
            },
            "9": {
                "cle": {
                    "unit": "percent",
                    "value": 72
                },
                "decote": {
                    "unit": "percent",
                    "value": 28
                }
            },
            "10": {
                "cle": {
                    "unit": "percent",
                    "value": 69.5
                },
                "decote": {
                    "unit": "percent",
                    "value": 31
                }
            },
            "11": {
                "cle": {
                    "unit": "percent",
                    "value": 68
                },
                "decote": {
                    "unit": "percent",
                    "value": 32
                }
            },
            "12": {
                "cle": {
                    "unit": "percent",
                    "value": 66.5
                },
                "decote": {
                    "unit": "percent",
                    "value": 34
                }
            },
            "13": {
                "cle": {
                    "unit": "percent",
                    "value": 64.5
                },
                "decote": {
                    "unit": "percent",
                    "value": 36
                }
            },
            "14": {
                "cle": {
                    "unit": "percent",
                    "value": 62.5
                },
                "decote": {
                    "unit": "percent",
                    "value": 38
                }
            },
            "15": {
                "cle": {
                    "unit": "percent",
                    "value": 59.5
                },
                "decote": {
                    "unit": "percent",
                    "value": 41
                }
            },
            "16": {
                "cle": {
                    "unit": "percent",
                    "value": 58.5
                },
                "decote": {
                    "unit": "percent",
                    "value": 42
                }
            },
            "17": {
                "cle": {
                    "unit": "percent",
                    "value": 57.5
                },
                "decote": {
                    "unit": "percent",
                    "value": 43
                }
            },
            "18": {
                "cle": {
                    "unit": "percent",
                    "value": 56.5
                },
                "decote": {
                    "unit": "percent",
                    "value": 44
                }
            },
            "19": {
                "cle": {
                    "unit": "percent",
                    "value": 56
                },
                "decote": {
                    "unit": "percent",
                    "value": 44
                }
            },
            "20": {
                "cle": {
                    "unit": "percent",
                    "value": 55.5
                },
                "decote": {
                    "unit": "percent",
                    "value": 45
                }
            }
        }
    ]
}