{
    "scpi": "Placement Pierre",
    "display-name": "Placement Pierre",
    "gerant": "Aestiam",
    "strategie": "bureaux",
    "distribution-estimee": null,
    "td-2022": {
        "unit": "percent",
        "value": 5.05
    },
    "td-2021": {
        "unit": "percent",
        "value": 5.01
    },
    "tdvm-2020": {
        "unit": "percent",
        "value": 4.77
    },
    "part-souscription": {
        "unit": "euros",
        "value": 350
    },
    "part-retrait": {
        "unit": "euros",
        "value": 315
    },
    "differentiel-souscription-retrait": {
        "unit": "percent",
        "value": 10
    },
    "valeur-de-reconstitution": {
        "unit": "euros",
        "value": 373.84
    },
    "min-parts-souscription": 10,
    "montant-min-souscription": {
        "unit": "euros",
        "value": 3500
    },
    "delai-de-jouissance": {
        "unit": "mois",
        "value": 4
    },
    "frais-de-gestion": {
        "unit": "percent",
        "value": 7.2
    },
    "versement-programme": false,
    "tof": {
        "unit": "percent",
        "value": 93.5
    },
    "top": {
        "unit": "percent",
        "value": 92.4
    },
    "nombre-de-locataires": 291,
    "walb-ans": "2,74",
    "souscriptions": "14\u202f493",
    "retraits": "6\u202f889",
    "indice-de-liquidite": "Illiquide",
    "isr": false,
    "capitalisation": 380000000,
    "geographie": "\ud83c\uddeb\ud83c\uddf7 France",
    "creation": 1986,
    "endettement": {
        "unit": "percent",
        "value": 14
    },
    "url": "https:\/\/www.aestiam.com\/scpi\/aestiam-placement-pierre",
    "versement": "Trimestriel",
    "displayable": true,
    "featured": null,
    "image-link": "https:\/\/firebasestorage.googleapis.com\/v0\/b\/louvcap-eea66.appspot.com\/o\/public%2FscpiPictures%2Fbureau12.jpg?alt=media&token=a6fe09c6-6c49-49d4-9d15-5a6f664ae6a7",
    "allow-direct-debit": "No",
    "cashback": {
        "unit": "percent",
        "value": 2.5
    },
    "auto-reinvest": "No",
    "documents": {
        "scpi": "Placement Pierre",
        "ok": true,
        "dernier-rapport-annuel": "https:\/\/www.aestiam.com\/medias\/documents\/241\/04-rap-annuel-pierre-rendement-web.pdf",
        "dernier-bulletin-en-date": "T1",
        "dernier-bulletin-trimestriel": "https:\/\/www.aestiam.com\/medias\/documents\/307\/app-1t2023-bulletin-trimestriel-opt.pdf",
        "dici": "https:\/\/www.aestiam.com\/medias\/documents\/11\/aestiam-placement-pierre-dic.pdf",
        "note-dinformations": "https:\/\/www.aestiam.com\/medias\/documents\/45\/notinfo-statuts-app-08-2021.pdf"
    },
    "geographies": {
        "scpi": "Placement Pierre",
        "ok": true,
        "regions": {
            "unit": "percent",
            "value": 38
        },
        "idf": {
            "unit": "percent",
            "value": 50
        },
        "allemagne": {
            "unit": "percent",
            "value": 0
        },
        "belgique": {
            "unit": "percent",
            "value": 0
        },
        "pays-bas": {
            "unit": "percent",
            "value": 0
        },
        "italie": {
            "unit": "percent",
            "value": 0
        },
        "finlande": {
            "unit": "percent",
            "value": 0
        },
        "irlande": {
            "unit": "percent",
            "value": 0
        },
        "espagne": {
            "unit": "percent",
            "value": 0
        },
        "lituanie": {
            "unit": "percent",
            "value": 0
        },
        "portugal": {
            "unit": "percent",
            "value": 0
        },
        "slovenie": {
            "unit": "percent",
            "value": 0
        },
        "estonie": {
            "unit": "percent",
            "value": 0
        },
        "lettonie": {
            "unit": "percent",
            "value": 0
        },
        "autriche": {
            "unit": "percent",
            "value": 0
        },
        "gde-bretagne": {
            "unit": "percent",
            "value": 0
        },
        "pologne": {
            "unit": "percent",
            "value": 0
        },
        "luxembourg": {
            "unit": "percent",
            "value": 0
        },
        "autres": {
            "unit": "percent",
            "value": 12
        },
        "total": {
            "unit": "percent",
            "value": 100
        }
    },
    "actifs": {
        "scpi": "Placement Pierre",
        "ok": true,
        "sante": {
            "unit": "percent",
            "value": 0
        },
        "residentiel": {
            "unit": "percent",
            "value": 0
        },
        "commerces": {
            "unit": "percent",
            "value": 15
        },
        "bureaux": {
            "unit": "percent",
            "value": 79
        },
        "logistique": {
            "unit": "percent",
            "value": 0
        },
        "locaux-dactivite": {
            "unit": "percent",
            "value": 0
        },
        "hotels": {
            "unit": "percent",
            "value": 4
        },
        "transports": {
            "unit": "percent",
            "value": 0
        },
        "autre": {
            "unit": "percent",
            "value": 2
        },
        "total": {
            "unit": "percent",
            "value": 100
        },
        "nombre-dactifs": 155
    },
    "performance": [
        {
            "scpi": "Placement Pierre",
            "ok": true,
            "annee": 2010,
            "periode": "FY",
            "date": "31\/12\/2010",
            "prix-de-souscription": {
                "unit": "euros",
                "value": 330
            },
            "prix-de-retrait": null,
            "dividende-brut": null,
            "dividende-net-de-fiscalite-etrangere": {
                "unit": "euros",
                "value": 18.45
            }
        },
        {
            "scpi": "Placement Pierre",
            "ok": true,
            "annee": 2011,
            "periode": "FY",
            "date": "31\/12\/2011",
            "prix-de-souscription": {
                "unit": "euros",
                "value": 314
            },
            "prix-de-retrait": null,
            "dividende-brut": null,
            "dividende-net-de-fiscalite-etrangere": {
                "unit": "euros",
                "value": 16.71
            },
            "distribution": {
                "unit": "percent",
                "value": 5.06
            },
            "revalorisation": {
                "unit": "percent",
                "value": -4.85
            }
        },
        {
            "scpi": "Placement Pierre",
            "ok": true,
            "annee": 2012,
            "periode": "FY",
            "date": "31\/12\/2012",
            "prix-de-souscription": {
                "unit": "euros",
                "value": 292
            },
            "prix-de-retrait": null,
            "dividende-brut": null,
            "dividende-net-de-fiscalite-etrangere": {
                "unit": "euros",
                "value": 16.71
            },
            "distribution": {
                "unit": "percent",
                "value": 5.32
            },
            "revalorisation": {
                "unit": "percent",
                "value": -7.01
            }
        },
        {
            "scpi": "Placement Pierre",
            "ok": true,
            "annee": 2013,
            "periode": "FY",
            "date": "31\/12\/2013",
            "prix-de-souscription": {
                "unit": "euros",
                "value": 289
            },
            "prix-de-retrait": null,
            "dividende-brut": null,
            "dividende-net-de-fiscalite-etrangere": {
                "unit": "euros",
                "value": 16.71
            },
            "distribution": {
                "unit": "percent",
                "value": 5.72
            },
            "revalorisation": {
                "unit": "percent",
                "value": -1.03
            }
        },
        {
            "scpi": "Placement Pierre",
            "ok": true,
            "annee": 2014,
            "periode": "FY",
            "date": "31\/12\/2014",
            "prix-de-souscription": {
                "unit": "euros",
                "value": 283
            },
            "prix-de-retrait": null,
            "dividende-brut": null,
            "dividende-net-de-fiscalite-etrangere": {
                "unit": "euros",
                "value": 16.11
            },
            "distribution": {
                "unit": "percent",
                "value": 5.57
            },
            "revalorisation": {
                "unit": "percent",
                "value": -2.08
            }
        },
        {
            "scpi": "Placement Pierre",
            "ok": true,
            "annee": 2015,
            "periode": "FY",
            "date": "31\/12\/2015",
            "prix-de-souscription": {
                "unit": "euros",
                "value": 284
            },
            "prix-de-retrait": null,
            "dividende-brut": null,
            "dividende-net-de-fiscalite-etrangere": {
                "unit": "euros",
                "value": 16.29
            },
            "distribution": {
                "unit": "percent",
                "value": 5.76
            },
            "revalorisation": {
                "unit": "percent",
                "value": 0.35
            }
        },
        {
            "scpi": "Placement Pierre",
            "ok": true,
            "annee": 2016,
            "periode": "FY",
            "date": "31\/12\/2016",
            "prix-de-souscription": {
                "unit": "euros",
                "value": 340
            },
            "prix-de-retrait": null,
            "dividende-brut": null,
            "dividende-net-de-fiscalite-etrangere": {
                "unit": "euros",
                "value": 16.29
            },
            "distribution": {
                "unit": "percent",
                "value": 5.74
            },
            "revalorisation": {
                "unit": "percent",
                "value": 19.72
            }
        },
        {
            "scpi": "Placement Pierre",
            "ok": true,
            "annee": 2017,
            "periode": "FY",
            "date": "31\/12\/2017",
            "prix-de-souscription": {
                "unit": "euros",
                "value": 340
            },
            "prix-de-retrait": null,
            "dividende-brut": null,
            "dividende-net-de-fiscalite-etrangere": {
                "unit": "euros",
                "value": 16.2
            },
            "distribution": {
                "unit": "percent",
                "value": 4.76
            },
            "revalorisation": {
                "unit": "percent",
                "value": 0
            }
        },
        {
            "scpi": "Placement Pierre",
            "ok": true,
            "annee": 2018,
            "periode": "FY",
            "date": "31\/12\/2018",
            "prix-de-souscription": {
                "unit": "euros",
                "value": 345
            },
            "prix-de-retrait": null,
            "dividende-brut": null,
            "dividende-net-de-fiscalite-etrangere": {
                "unit": "euros",
                "value": 16.2
            },
            "distribution": {
                "unit": "percent",
                "value": 4.76
            },
            "revalorisation": {
                "unit": "percent",
                "value": 1.47
            }
        },
        {
            "scpi": "Placement Pierre",
            "ok": true,
            "annee": 2019,
            "periode": "FY",
            "date": "31\/12\/2019",
            "prix-de-souscription": {
                "unit": "euros",
                "value": 350
            },
            "prix-de-retrait": null,
            "dividende-brut": null,
            "dividende-net-de-fiscalite-etrangere": {
                "unit": "euros",
                "value": 17.22
            },
            "distribution": {
                "unit": "percent",
                "value": 4.99
            },
            "revalorisation": {
                "unit": "percent",
                "value": 1.45
            }
        },
        {
            "scpi": "Placement Pierre",
            "ok": true,
            "annee": 2020,
            "periode": "FY",
            "date": "31\/12\/2020",
            "prix-de-souscription": {
                "unit": "euros",
                "value": 350
            },
            "prix-de-retrait": null,
            "dividende-brut": null,
            "dividende-net-de-fiscalite-etrangere": {
                "unit": "euros",
                "value": 16.2
            },
            "distribution": {
                "unit": "percent",
                "value": 4.77
            }
        },
        {
            "scpi": "Placement Pierre",
            "ok": true,
            "annee": 2021,
            "periode": "FY",
            "date": "31\/12\/2021",
            "prix-de-souscription": {
                "unit": "euros",
                "value": 350
            },
            "prix-de-retrait": null,
            "dividende-brut": {
                "unit": "euros",
                "value": 17.52
            },
            "dividende-net-de-fiscalite-etrangere": {
                "unit": "euros",
                "value": 16.8
            },
            "distribution": {
                "unit": "percent",
                "value": 5.01
            },
            "revalorisation": {
                "unit": "percent",
                "value": 0
            }
        },
        {
            "scpi": "Placement Pierre",
            "ok": true,
            "annee": 2022,
            "periode": "T3",
            "date": "30\/09\/2022",
            "prix-de-souscription": {
                "unit": "euros",
                "value": 350
            },
            "prix-de-retrait": null,
            "dividende-brut": {
                "unit": "euros",
                "value": 4.05
            },
            "dividende-net-de-fiscalite-etrangere": {
                "unit": "euros",
                "value": 3.99
            },
            "distribution": null,
            "revalorisation": {
                "unit": "percent",
                "value": 0
            }
        },
        {
            "scpi": "Placement Pierre",
            "ok": true,
            "annee": 2022,
            "periode": "T4",
            "date": "31\/12\/2022",
            "prix-de-souscription": {
                "unit": "euros",
                "value": 350
            },
            "prix-de-retrait": null,
            "dividende-brut": {
                "unit": "euros",
                "value": 4.05
            },
            "dividende-net-de-fiscalite-etrangere": {
                "unit": "euros",
                "value": 5.31
            },
            "distribution": null,
            "revalorisation": {
                "unit": "percent",
                "value": 0
            }
        },
        {
            "scpi": "Placement Pierre",
            "ok": true,
            "annee": 2022,
            "periode": "FY",
            "date": "31\/12\/2022",
            "prix-de-souscription": {
                "unit": "euros",
                "value": 350
            },
            "prix-de-retrait": null,
            "dividende-brut": {
                "unit": "euros",
                "value": 17.52
            },
            "dividende-net-de-fiscalite-etrangere": null,
            "distribution": {
                "unit": "percent",
                "value": 5.01
            },
            "revalorisation": {
                "unit": "percent",
                "value": 0
            },
            "valeur-de-reconstitution": {
                "unit": "euros",
                "value": 365.4
            },
            "valeur-de-realisation": {
                "unit": "euros",
                "value": 306.4
            },
            "ecart-a-valeur-de-reconstitution": {
                "unit": "percent",
                "value": -4.21
            }
        },
        {
            "scpi": "Placement Pierre",
            "ok": true,
            "annee": 2023,
            "periode": "T1",
            "date": "31\/03\/2023",
            "prix-de-souscription": {
                "unit": "euros",
                "value": 350
            },
            "prix-de-retrait": null,
            "dividende-brut": {
                "unit": "euros",
                "value": 4.05
            },
            "dividende-net-de-fiscalite-etrangere": null,
            "distribution": {
                "unit": "percent",
                "value": 5.05
            },
            "revalorisation": null,
            "valeur-de-reconstitution": {
                "unit": "euros",
                "value": 373.84
            },
            "valeur-de-realisation": {
                "unit": "euros",
                "value": 309.81
            }
        }
    ],
    "descriptions": [
        {
            "scpi": "Placement Pierre",
            "": true,
            "strategie": "La SCPI Placement Pierre est concentr\u00e9e principalement sur l\u2019acquisition d\u2019immeubles de bureaux en r\u00e9gion parisienne ou dans les grandes m\u00e9tropoles r\u00e9gionales.",
            "macro": null,
            "micro": null,
            "conclusion": "Placement Pierre est une SCPI de bureaux qui s'adresse aux PME, principalement situ\u00e9s au coeur des agglom\u00e9rations. Attention \u00e0 la liquidit\u00e9 de cette SCPI, lanc\u00e9 en 1986, il n'est pas simple de revendre ses parts.  ",
            "performances": null,
            "video": null,
            "thread": "https:\/\/community.louveinvest.com\/t\/placement-pierre-avis-sur-la-scpi\/155"
        }
    ],
    "demembrement": [
        {
            "scpi": "Placement Pierre",
            "ok": true,
            "3": {
                "cle": {
                    "unit": "percent",
                    "value": 88.5
                },
                "decote": {
                    "unit": "percent",
                    "value": 12
                }
            },
            "4": {
                "cle": {
                    "unit": "percent",
                    "value": 85
                },
                "decote": {
                    "unit": "percent",
                    "value": 15
                }
            },
            "5": {
                "cle": {
                    "unit": "percent",
                    "value": 81.5
                },
                "decote": {
                    "unit": "percent",
                    "value": 19
                }
            },
            "6": {
                "cle": {
                    "unit": "percent",
                    "value": 78.5
                },
                "decote": {
                    "unit": "percent",
                    "value": 22
                }
            },
            "7": {
                "cle": {
                    "unit": "percent",
                    "value": 75.5
                },
                "decote": {
                    "unit": "percent",
                    "value": 25
                }
            },
            "8": {
                "cle": {
                    "unit": "percent",
                    "value": 72.5
                },
                "decote": {
                    "unit": "percent",
                    "value": 28
                }
            },
            "9": {
                "cle": {
                    "unit": "percent",
                    "value": 70
                },
                "decote": {
                    "unit": "percent",
                    "value": 30
                }
            },
            "10": {
                "cle": {
                    "unit": "percent",
                    "value": 68
                },
                "decote": {
                    "unit": "percent",
                    "value": 32
                }
            },
            "11": {
                "cle": {
                    "unit": "percent",
                    "value": 65.5
                },
                "decote": {
                    "unit": "percent",
                    "value": 35
                }
            },
            "12": {
                "cle": {
                    "unit": "percent",
                    "value": 65
                },
                "decote": {
                    "unit": "percent",
                    "value": 35
                }
            },
            "13": {
                "cle": {
                    "unit": "percent",
                    "value": 62.5
                },
                "decote": {
                    "unit": "percent",
                    "value": 38
                }
            },
            "14": {
                "cle": {
                    "unit": "percent",
                    "value": 61
                },
                "decote": {
                    "unit": "percent",
                    "value": 39
                }
            },
            "15": {
                "cle": {
                    "unit": "percent",
                    "value": 60.5
                },
                "decote": {
                    "unit": "percent",
                    "value": 40
                }
            },
            "16": {
                "cle": {
                    "unit": "percent",
                    "value": 59.5
                },
                "decote": {
                    "unit": "percent",
                    "value": 41
                }
            },
            "17": {
                "cle": {
                    "unit": "percent",
                    "value": 59
                },
                "decote": {
                    "unit": "percent",
                    "value": 41
                }
            },
            "18": {
                "cle": {
                    "unit": "percent",
                    "value": 58.5
                },
                "decote": {
                    "unit": "percent",
                    "value": 42
                }
            },
            "19": {
                "cle": {
                    "unit": "percent",
                    "value": 58
                },
                "decote": {
                    "unit": "percent",
                    "value": 42
                }
            },
            "20": {
                "cle": {
                    "unit": "percent",
                    "value": 57.5
                },
                "decote": {
                    "unit": "percent",
                    "value": 43
                }
            }
        }
    ]
}