{
    "scpi": "Edissimo",
    "display-name": "Edissimmo",
    "gerant": "Amundi",
    "strategie": "bureaux",
    "distribution-estimee": null,
    "td-2021": {
        "unit": "percent",
        "value": 3.67
    },
    "tdvm-2020": {
        "unit": "percent",
        "value": 3.78
    },
    "part-souscription": {
        "unit": "euros",
        "value": 237
    },
    "part-retrait": {
        "unit": "euros",
        "value": 218.06
    },
    "differentiel-souscription-retrait": {
        "unit": "percent",
        "value": 7.99
    },
    "valeur-de-reconstitution": {
        "unit": "euros",
        "value": 235.08
    },
    "min-parts-souscription": 10,
    "montant-min-souscription": {
        "unit": "euros",
        "value": 2370
    },
    "delai-de-jouissance": {
        "unit": "mois",
        "value": 2
    },
    "frais-de-gestion": {
        "unit": "percent",
        "value": 8
    },
    "versement-programme": true,
    "url": "https:\/\/www.amundi.fr\/fr_part\/product\/view\/SU0016",
    "geographie": "France et Europe",
    "capitalisation": 4099999999.9999995,
    "creation": 1986,
    "endettement": {
        "unit": "percent",
        "value": 24.9
    },
    "displayable": false,
    "featured": null,
    "image-link": "https:\/\/firebasestorage.googleapis.com\/v0\/b\/louvcap-eea66.appspot.com\/o\/public%2FscpiPictures%2Fbureau03.jpg?alt=media&token=5278927c-8513-434a-b843-9016c7422ac9",
    "documents": {
        "scpi": "Edissimo",
        "ok": true,
        "dernier-rapport-annuel": "https:\/\/www.amundi-immobilier.com\/ezjscore\/call\/ezjscamundibuzz::sfForwardFront::paramsList=service=ProxyGedApi&routeId=_dl_7caf5b1e-1c64-4544-b5e8-228438915638",
        "dernier-bulletin-en-date": "T1",
        "dernier-bulletin-trimestriel": "https:\/\/www.amundi-immobilier.com\/ezjscore\/call\/ezjscamundibuzz::sfForwardFront::paramsList=service=ProxyGedApi&routeId=_dl_7771ea3c-de28-4ed7-ae8d-61ef5e1d50b6",
        "dici": "https:\/\/www.amundi-immobilier.com\/ezjscore\/call\/ezjscamundibuzz::sfForwardFront::paramsList=service=ProxyGedApi&routeId=_dl_e2873ba4-d7c6-4b0e-b787-13a916927651",
        "note-dinformations": "https:\/\/www.amundi-immobilier.com\/ezjscore\/call\/ezjscamundibuzz::sfForwardFront::paramsList=service=ProxyGedApi&routeId=_dl_NGI0YTZiODlhMTcxMDMzMDBkNjM0M2NkZWU5OWNlNTc"
    },
    "geographies": {
        "scpi": "Edissimo",
        "ok": true,
        "regions": {
            "unit": "percent",
            "value": 19.43
        },
        "idf": {
            "unit": "percent",
            "value": 56.4
        },
        "allemagne": {
            "unit": "percent",
            "value": 15.31
        },
        "belgique": {
            "unit": "percent",
            "value": 1.07
        },
        "pays-bas": {
            "unit": "percent",
            "value": 3.56
        },
        "italie": {
            "unit": "percent",
            "value": 0
        },
        "finlande": {
            "unit": "percent",
            "value": 0
        },
        "irlande": {
            "unit": "percent",
            "value": 0
        },
        "espagne": {
            "unit": "percent",
            "value": 1.89
        },
        "lituanie": {
            "unit": "percent",
            "value": 0
        },
        "portugal": {
            "unit": "percent",
            "value": 0
        },
        "slovenie": {
            "unit": "percent",
            "value": 0
        },
        "estonie": {
            "unit": "percent",
            "value": 0
        },
        "lettonie": {
            "unit": "percent",
            "value": 0
        },
        "autriche": {
            "unit": "percent",
            "value": 0.97
        },
        "gde-bretagne": {
            "unit": "percent",
            "value": 0
        },
        "pologne": {
            "unit": "percent",
            "value": 0.68
        },
        "luxembourg": {
            "unit": "percent",
            "value": 0
        },
        "autres": {
            "unit": "percent",
            "value": 0.69
        },
        "total": {
            "unit": "percent",
            "value": 100
        }
    },
    "actifs": {
        "scpi": "Edissimo",
        "ok": true,
        "sante": {
            "unit": "percent",
            "value": 0.52
        },
        "residentiel": {
            "unit": "percent",
            "value": 0.46
        },
        "commerces": {
            "unit": "percent",
            "value": 10.69
        },
        "bureaux": {
            "unit": "percent",
            "value": 74.17
        },
        "logistique": {
            "unit": "percent",
            "value": 8.76
        },
        "locaux-dactivite": {
            "unit": "percent",
            "value": 1.51
        },
        "hotels": {
            "unit": "percent",
            "value": 3.89
        },
        "transports": {
            "unit": "percent",
            "value": 0
        },
        "autre": {
            "unit": "percent",
            "value": 0
        },
        "total": {
            "unit": "percent",
            "value": 100
        },
        "nombre-dactifs": 192
    },
    "performance": [
        {
            "scpi": "Edissimo",
            "ok": true,
            "annee": 2019,
            "periode": "FY",
            "prix-de-souscription": {
                "unit": "euros",
                "value": 235
            },
            "prix-de-retrait": null,
            "dividende-brut": null,
            "dividende-net-de-fiscalite-etrangere": {
                "unit": "euros",
                "value": 9.4
            }
        },
        {
            "scpi": "Edissimo",
            "ok": true,
            "annee": 2020,
            "periode": "FY",
            "prix-de-souscription": {
                "unit": "euros",
                "value": 237
            },
            "prix-de-retrait": null,
            "dividende-brut": null,
            "dividende-net-de-fiscalite-etrangere": {
                "unit": "euros",
                "value": 8.93
            },
            "distribution": {
                "unit": "percent",
                "value": 3.8
            },
            "revalorisation": {
                "unit": "percent",
                "value": 0.85
            }
        },
        {
            "scpi": "Edissimo",
            "ok": true,
            "annee": 2021,
            "periode": "FY",
            "prix-de-souscription": {
                "unit": "euros",
                "value": 237
            },
            "prix-de-retrait": null,
            "dividende-brut": {
                "unit": "euros",
                "value": 8.7
            },
            "dividende-net-de-fiscalite-etrangere": {
                "unit": "euros",
                "value": 8.53
            },
            "distribution": {
                "unit": "percent",
                "value": 3.67
            },
            "revalorisation": {
                "unit": "percent",
                "value": 0
            }
        }
    ],
    "descriptions": [
        {
            "scpi": "Edissimo",
            "ok": true,
            "strategie": "La SCPI Edissimmo investi en grande partie en Ile de France et en province, le reste de ses actifs est r\u00e9parti dans plusieurs pays Europ\u00e9ens comme l\u2019Allemagne, la Belgique ou encore les Pays-Bas.",
            "video": "https:\/\/bcove.video\/2PGGx6J"
        }
    ],
    "demembrement": [
        {
            "scpi": "Edissimo",
            "ok": true,
            "3": null,
            "4": null,
            "5": null,
            "6": null,
            "7": null,
            "8": null,
            "9": null,
            "10": {
                "cle": {
                    "unit": "percent",
                    "value": 67
                },
                "decote": {
                    "unit": "percent",
                    "value": 33
                }
            },
            "11": null,
            "12": null,
            "13": null,
            "14": null,
            "15": null,
            "16": null,
            "17": null,
            "18": null,
            "19": null,
            "20": null
        }
    ]
}