{
    "scpi": "Fair Invest",
    "display-name": "Fair Invest",
    "gerant": "Norma Capital",
    "strategie": "diversifiee",
    "distribution-estimee": null,
    "td-2021": {
        "unit": "percent",
        "value": 4.73
    },
    "tdvm-2020": {
        "unit": "percent",
        "value": 4.51
    },
    "part-souscription": {
        "unit": "euros",
        "value": 200
    },
    "part-retrait": {
        "unit": "euros",
        "value": 180
    },
    "differentiel-souscription-retrait": {
        "unit": "percent",
        "value": 10
    },
    "valeur-de-reconstitution": {
        "unit": "euros",
        "value": 215.39
    },
    "min-parts-souscription": 5,
    "montant-min-souscription": {
        "unit": "euros",
        "value": 1000
    },
    "delai-de-jouissance": {
        "unit": "mois",
        "value": 5
    },
    "frais-de-gestion": {
        "unit": "percent",
        "value": 12
    },
    "versement-programme": false,
    "url": "https:\/\/www.normacapital.fr\/fonds\/fair-invest\/",
    "geographie": "\ud83c\uddeb\ud83c\uddf7 France",
    "capitalisation": 39200000,
    "creation": 2018,
    "endettement": null,
    "displayable": true,
    "featured": null,
    "image-link": "https:\/\/firebasestorage.googleapis.com\/v0\/b\/louvcap-eea66.appspot.com\/o\/public%2FscpiPictures%2Fdiversifie12.jpg?alt=media&token=1617e246-13fe-4c7a-a0fc-f5394bbacbe1",
    "documents": {
        "scpi": "Fair Invest",
        "ok": true,
        "dernier-rapport-annuel": "https:\/\/www.normacapital.fr\/documentation\/rapport-annuel-2021\/",
        "dernier-bulletin-en-date": "T1",
        "dernier-bulletin-trimestriel": "https:\/\/www.normacapital.fr\/documentation\/bulletin-trimestriel-dinformation-t1-2022\/",
        "dici": "https:\/\/www.normacapital.fr\/documentation\/documentation-dinformations-cles-fair-invest\/",
        "note-dinformations": "https:\/\/www.normacapital.fr\/documentation\/note-dinformation-fair-invest-2\/"
    },
    "geographies": {
        "scpi": "Fair Invest",
        "ok": true,
        "regions": {
            "unit": "percent",
            "value": 71
        },
        "idf": {
            "unit": "percent",
            "value": 29
        },
        "allemagne": {
            "unit": "percent",
            "value": 0
        },
        "belgique": {
            "unit": "percent",
            "value": 0
        },
        "pays-bas": {
            "unit": "percent",
            "value": 0
        },
        "italie": {
            "unit": "percent",
            "value": 0
        },
        "finlande": {
            "unit": "percent",
            "value": 0
        },
        "irlande": {
            "unit": "percent",
            "value": 0
        },
        "espagne": {
            "unit": "percent",
            "value": 0
        },
        "lituanie": {
            "unit": "percent",
            "value": 0
        },
        "portugal": {
            "unit": "percent",
            "value": 0
        },
        "slovenie": {
            "unit": "percent",
            "value": 0
        },
        "estonie": {
            "unit": "percent",
            "value": 0
        },
        "lettonie": {
            "unit": "percent",
            "value": 0
        },
        "autriche": {
            "unit": "percent",
            "value": 0
        },
        "gde-bretagne": {
            "unit": "percent",
            "value": 0
        },
        "pologne": {
            "unit": "percent",
            "value": 0
        },
        "luxembourg": {
            "unit": "percent",
            "value": 0
        },
        "autres": {
            "unit": "percent",
            "value": 0
        },
        "total": {
            "unit": "percent",
            "value": 100
        }
    },
    "actifs": {
        "scpi": "Fair Invest",
        "ok": true,
        "sante": {
            "unit": "percent",
            "value": 74
        },
        "residentiel": {
            "unit": "percent",
            "value": 0
        },
        "commerces": {
            "unit": "percent",
            "value": 0
        },
        "bureaux": {
            "unit": "percent",
            "value": 0
        },
        "logistique": {
            "unit": "percent",
            "value": 0
        },
        "locaux-dactivite": {
            "unit": "percent",
            "value": 0
        },
        "hotels": {
            "unit": "percent",
            "value": 0
        },
        "transports": {
            "unit": "percent",
            "value": 0
        },
        "autre": {
            "unit": "percent",
            "value": 26
        },
        "total": {
            "unit": "percent",
            "value": 100
        },
        "nombre-dactifs": 21
    },
    "performance": [
        {
            "scpi": "Fair Invest",
            "ok": true,
            "annee": 2018,
            "periode": "FY",
            "prix-de-souscription": {
                "unit": "euros",
                "value": 200
            },
            "prix-de-retrait": null,
            "dividende-brut": null,
            "dividende-net-de-fiscalite-etrangere": {
                "unit": "euros",
                "value": 0
            }
        },
        {
            "scpi": "Fair Invest",
            "ok": true,
            "annee": 2019,
            "periode": "FY",
            "prix-de-souscription": {
                "unit": "euros",
                "value": 200
            },
            "prix-de-retrait": null,
            "dividende-brut": null,
            "dividende-net-de-fiscalite-etrangere": {
                "unit": "euros",
                "value": 4.39
            },
            "distribution": {
                "unit": "percent",
                "value": 2.2
            },
            "revalorisation": {
                "unit": "percent",
                "value": 0
            },
            "valeur-de-reconstitution": {
                "unit": "euros",
                "value": 202.69
            },
            "valeur-de-realisation": null,
            "ecart-a-valeur-de-reconstitution": {
                "unit": "percent",
                "value": -1.33
            }
        },
        {
            "scpi": "Fair Invest",
            "ok": true,
            "annee": 2020,
            "periode": "FY",
            "prix-de-souscription": {
                "unit": "euros",
                "value": 200
            },
            "prix-de-retrait": null,
            "dividende-brut": null,
            "dividende-net-de-fiscalite-etrangere": {
                "unit": "euros",
                "value": 9.02
            },
            "distribution": {
                "unit": "percent",
                "value": 4.51
            },
            "revalorisation": {
                "unit": "percent",
                "value": 0
            }
        },
        {
            "scpi": "Fair Invest",
            "ok": true,
            "annee": 2021,
            "periode": "FY",
            "prix-de-souscription": {
                "unit": "euros",
                "value": 200
            },
            "prix-de-retrait": null,
            "dividende-brut": null,
            "dividende-net-de-fiscalite-etrangere": {
                "unit": "euros",
                "value": 9.42
            },
            "distribution": {
                "unit": "percent",
                "value": 4.71
            },
            "revalorisation": {
                "unit": "percent",
                "value": 0
            }
        }
    ],
    "descriptions": [
        {
            "scpi": "Fair Invest",
            "ok": true,
            "strategie": "Fair Invest est une SCPI qui a pour strat\u00e9gie d\u2019investir uniquement dans des bien socialement responsables et utiles. La majorit\u00e9 de son patrimoine se compose d\u2019\u00e9tablissements de sant\u00e9, de bureaux et de commerces situ\u00e9s en France.",
            "video": "https:\/\/youtube.com\/embed\/KP1gCqRGZKw"
        }
    ],
    "demembrement": [
        {
            "scpi": "Fair Invest",
            "ok": true,
            "3": {
                "cle": {
                    "unit": "percent",
                    "value": 87.5
                },
                "decote": {
                    "unit": "percent",
                    "value": 13
                }
            },
            "4": {
                "cle": {
                    "unit": "percent",
                    "value": 84
                },
                "decote": {
                    "unit": "percent",
                    "value": 16
                }
            },
            "5": {
                "cle": {
                    "unit": "percent",
                    "value": 80
                },
                "decote": {
                    "unit": "percent",
                    "value": 20
                }
            },
            "6": {
                "cle": {
                    "unit": "percent",
                    "value": 76.5
                },
                "decote": {
                    "unit": "percent",
                    "value": 24
                }
            },
            "7": {
                "cle": {
                    "unit": "percent",
                    "value": 73
                },
                "decote": {
                    "unit": "percent",
                    "value": 27
                }
            },
            "8": {
                "cle": {
                    "unit": "percent",
                    "value": 71.5
                },
                "decote": {
                    "unit": "percent",
                    "value": 29
                }
            },
            "9": {
                "cle": {
                    "unit": "percent",
                    "value": 70
                },
                "decote": {
                    "unit": "percent",
                    "value": 30
                }
            },
            "10": {
                "cle": {
                    "unit": "percent",
                    "value": 67
                },
                "decote": {
                    "unit": "percent",
                    "value": 33
                }
            },
            "11": {
                "cle": {
                    "unit": "percent",
                    "value": 65.5
                },
                "decote": {
                    "unit": "percent",
                    "value": 35
                }
            },
            "12": {
                "cle": {
                    "unit": "percent",
                    "value": 64
                },
                "decote": {
                    "unit": "percent",
                    "value": 36
                }
            },
            "13": {
                "cle": {
                    "unit": "percent",
                    "value": 63
                },
                "decote": {
                    "unit": "percent",
                    "value": 37
                }
            },
            "14": {
                "cle": {
                    "unit": "percent",
                    "value": 62
                },
                "decote": {
                    "unit": "percent",
                    "value": 38
                }
            },
            "15": {
                "cle": {
                    "unit": "percent",
                    "value": 61
                },
                "decote": {
                    "unit": "percent",
                    "value": 39
                }
            },
            "16": {
                "cle": {
                    "unit": "percent",
                    "value": 60
                },
                "decote": {
                    "unit": "percent",
                    "value": 40
                }
            },
            "17": {
                "cle": {
                    "unit": "percent",
                    "value": 59
                },
                "decote": {
                    "unit": "percent",
                    "value": 41
                }
            },
            "18": {
                "cle": {
                    "unit": "percent",
                    "value": 58
                },
                "decote": {
                    "unit": "percent",
                    "value": 42
                }
            },
            "19": {
                "cle": {
                    "unit": "percent",
                    "value": 57
                },
                "decote": {
                    "unit": "percent",
                    "value": 43
                }
            },
            "20": {
                "cle": {
                    "unit": "percent",
                    "value": 56
                },
                "decote": {
                    "unit": "percent",
                    "value": 44
                }
            }
        }
    ]
}