{
    "scpi": "LF EuropImmo",
    "display-name": "LF EuropImmo",
    "gerant": "La Francaise AM",
    "strategie": "bureaux",
    "distribution-estimee": null,
    "td-2021": {
        "unit": "percent",
        "value": 4.02
    },
    "tdvm-2020": {
        "unit": "percent",
        "value": 4.02
    },
    "part-souscription": {
        "unit": "euros",
        "value": 1045
    },
    "part-retrait": {
        "unit": "euros",
        "value": 961.4
    },
    "differentiel-souscription-retrait": {
        "unit": "percent",
        "value": 8
    },
    "valeur-de-reconstitution": {
        "unit": "euros",
        "value": 1149.62
    },
    "min-parts-souscription": 1,
    "montant-min-souscription": {
        "unit": "euros",
        "value": 1045
    },
    "delai-de-jouissance": {
        "unit": "mois",
        "value": 5
    },
    "frais-de-gestion": {
        "unit": "percent",
        "value": 12
    },
    "versement-programme": true,
    "url": "https:\/\/www.lafrancaise-am-partenaires.com\/Produit\/SCPI\/FicheProduit\/lf-europimmo#docs",
    "geographie": "\ud83c\uddea\ud83c\uddfa Europe",
    "capitalisation": 1000000000,
    "creation": 2014,
    "endettement": null,
    "displayable": true,
    "featured": null,
    "image-link": "https:\/\/firebasestorage.googleapis.com\/v0\/b\/louvcap-eea66.appspot.com\/o\/public%2FscpiPictures%2Fbureau06.jpg?alt=media&token=cf83bbcd-ae4e-4a73-b7e5-59120fb5ec24",
    "documents": {
        "scpi": "LF EuropImmo",
        "ok": true,
        "dernier-rapport-annuel": "https:\/\/www.lafrancaise-am-partenaires.com\/Document\/rapport-annuel-lf-europimmo-2021",
        "dernier-bulletin-en-date": "T1",
        "dernier-bulletin-trimestriel": "https:\/\/www.lafrancaise-am-partenaires.com\/Document\/bulletin-trimestriel-lf-europimmo-31032022",
        "dici": "https:\/\/www.lafrancaise-am-partenaires.com\/Document\/document-informations-cles-lf-europimmo",
        "note-dinformations": "https:\/\/www.lafrancaise-am-partenaires.com\/Document\/note-information-et-statuts-lf-europimmo"
    },
    "geographies": {
        "scpi": "LF Europimmo",
        "ok": true,
        "regions": {
            "unit": "percent",
            "value": 4
        },
        "idf": {
            "unit": "percent",
            "value": 8.56
        },
        "allemagne": {
            "unit": "percent",
            "value": 57.16
        },
        "belgique": {
            "unit": "percent",
            "value": 6.66
        },
        "pays-bas": {
            "unit": "percent",
            "value": 8.05
        },
        "italie": {
            "unit": "percent",
            "value": 0
        },
        "finlande": {
            "unit": "percent",
            "value": 0
        },
        "irlande": {
            "unit": "percent",
            "value": 2.59
        },
        "espagne": {
            "unit": "percent",
            "value": 0
        },
        "lituanie": {
            "unit": "percent",
            "value": 0
        },
        "portugal": {
            "unit": "percent",
            "value": 0
        },
        "slovenie": {
            "unit": "percent",
            "value": 0
        },
        "estonie": {
            "unit": "percent",
            "value": 0
        },
        "lettonie": {
            "unit": "percent",
            "value": 0
        },
        "autriche": {
            "unit": "percent",
            "value": 0
        },
        "gde-bretagne": {
            "unit": "percent",
            "value": 10.92
        },
        "pologne": {
            "unit": "percent",
            "value": 0
        },
        "luxembourg": {
            "unit": "percent",
            "value": 2.06
        },
        "autres": {
            "unit": "percent",
            "value": 0
        },
        "total": {
            "unit": "percent",
            "value": 100
        }
    },
    "actifs": {
        "scpi": "LF EuropImmo",
        "ok": true,
        "sante": {
            "unit": "percent",
            "value": 2.25
        },
        "residentiel": {
            "unit": "percent",
            "value": 0
        },
        "commerces": {
            "unit": "percent",
            "value": 10.54
        },
        "bureaux": {
            "unit": "percent",
            "value": 81.73
        },
        "logistique": {
            "unit": "percent",
            "value": 0
        },
        "locaux-dactivite": {
            "unit": "percent",
            "value": 0
        },
        "hotels": {
            "unit": "percent",
            "value": 5.48
        },
        "transports": {
            "unit": "percent",
            "value": 0
        },
        "autre": {
            "unit": "percent",
            "value": 0
        },
        "total": {
            "unit": "percent",
            "value": 100
        },
        "nombre-dactifs": 46
    },
    "performance": [
        {
            "scpi": "LF Europimmo",
            "ok": true,
            "annee": 2014,
            "periode": "FY",
            "prix-de-souscription": {
                "unit": "euros",
                "value": 1000
            },
            "prix-de-retrait": null,
            "dividende-brut": null,
            "dividende-net-de-fiscalite-etrangere": {
                "unit": "euros",
                "value": 0
            }
        },
        {
            "scpi": "LF Europimmo",
            "ok": true,
            "annee": 2015,
            "periode": "FY",
            "prix-de-souscription": {
                "unit": "euros",
                "value": 1000
            },
            "prix-de-retrait": null,
            "dividende-brut": null,
            "dividende-net-de-fiscalite-etrangere": {
                "unit": "euros",
                "value": 45.6
            },
            "distribution": {
                "unit": "percent",
                "value": 4.56
            },
            "revalorisation": {
                "unit": "percent",
                "value": 0
            }
        },
        {
            "scpi": "LF Europimmo",
            "ok": true,
            "annee": 2016,
            "periode": "FY",
            "prix-de-souscription": {
                "unit": "euros",
                "value": 1000
            },
            "prix-de-retrait": null,
            "dividende-brut": null,
            "dividende-net-de-fiscalite-etrangere": {
                "unit": "euros",
                "value": 45.6
            },
            "distribution": {
                "unit": "percent",
                "value": 4.56
            },
            "revalorisation": {
                "unit": "percent",
                "value": 0
            }
        },
        {
            "scpi": "LF Europimmo",
            "ok": true,
            "annee": 2017,
            "periode": "FY",
            "prix-de-souscription": {
                "unit": "euros",
                "value": 1015
            },
            "prix-de-retrait": null,
            "dividende-brut": null,
            "dividende-net-de-fiscalite-etrangere": {
                "unit": "euros",
                "value": 42.6
            },
            "distribution": {
                "unit": "percent",
                "value": 4.26
            },
            "revalorisation": {
                "unit": "percent",
                "value": 1.5
            }
        },
        {
            "scpi": "LF Europimmo",
            "ok": true,
            "annee": 2018,
            "periode": "FY",
            "prix-de-souscription": {
                "unit": "euros",
                "value": 1015
            },
            "prix-de-retrait": null,
            "dividende-brut": null,
            "dividende-net-de-fiscalite-etrangere": {
                "unit": "euros",
                "value": 42.39
            },
            "distribution": {
                "unit": "percent",
                "value": 4.18
            },
            "revalorisation": {
                "unit": "percent",
                "value": 0
            }
        },
        {
            "scpi": "LF Europimmo",
            "ok": true,
            "annee": 2019,
            "periode": "FY",
            "prix-de-souscription": {
                "unit": "euros",
                "value": 1030
            },
            "prix-de-retrait": null,
            "dividende-brut": null,
            "dividende-net-de-fiscalite-etrangere": {
                "unit": "euros",
                "value": 41.76
            },
            "distribution": {
                "unit": "percent",
                "value": 4.11
            },
            "revalorisation": {
                "unit": "percent",
                "value": 1.48
            },
            "valeur-de-reconstitution": {
                "unit": "euros",
                "value": 1128.4
            },
            "valeur-de-realisation": null,
            "ecart-a-valeur-de-reconstitution": {
                "unit": "percent",
                "value": -8.72
            }
        },
        {
            "scpi": "LF Europimmo",
            "ok": true,
            "annee": 2020,
            "periode": "FY",
            "prix-de-souscription": {
                "unit": "euros",
                "value": 1045
            },
            "prix-de-retrait": null,
            "dividende-brut": null,
            "dividende-net-de-fiscalite-etrangere": {
                "unit": "euros",
                "value": 42
            },
            "distribution": {
                "unit": "percent",
                "value": 4.08
            },
            "revalorisation": {
                "unit": "percent",
                "value": 1.46
            },
            "valeur-de-reconstitution": {
                "unit": "euros",
                "value": 1101.01
            },
            "valeur-de-realisation": {
                "unit": "euros",
                "value": 945.34
            },
            "ecart-a-valeur-de-reconstitution": {
                "unit": "percent",
                "value": -5.09
            }
        },
        {
            "scpi": "LF Europimmo",
            "ok": true,
            "annee": 2021,
            "periode": "FY",
            "prix-de-souscription": {
                "unit": "euros",
                "value": 1045
            },
            "prix-de-retrait": null,
            "dividende-brut": null,
            "dividende-net-de-fiscalite-etrangere": {
                "unit": "euros",
                "value": 42
            },
            "distribution": {
                "unit": "percent",
                "value": 4.02
            },
            "revalorisation": {
                "unit": "percent",
                "value": 0
            }
        }
    ],
    "descriptions": [
        {
            "scpi": "LF EuropImmo",
            "ok": true,
            "strategie": "LF Europimmo investit dans des locaux d\u2019entreprises, principalement des bureaux mais \u00e9galement des commerces. La plus grande partie de son capital se trouve en Allemagne, le reste \u00e9tant r\u00e9parti dans d\u2019autres pays europ\u00e9ens et en France."
        }
    ],
    "demembrement": [
        {
            "scpi": "LF EuropImmo",
            "ok": true,
            "3": {
                "cle": {
                    "unit": "percent",
                    "value": 90.5
                },
                "decote": {
                    "unit": "percent",
                    "value": 10
                }
            },
            "4": {
                "cle": {
                    "unit": "percent",
                    "value": 87.5
                },
                "decote": {
                    "unit": "percent",
                    "value": 13
                }
            },
            "5": {
                "cle": {
                    "unit": "percent",
                    "value": 84.5
                },
                "decote": {
                    "unit": "percent",
                    "value": 16
                }
            },
            "6": {
                "cle": {
                    "unit": "percent",
                    "value": 81.5
                },
                "decote": {
                    "unit": "percent",
                    "value": 19
                }
            },
            "7": {
                "cle": {
                    "unit": "percent",
                    "value": 79.5
                },
                "decote": {
                    "unit": "percent",
                    "value": 21
                }
            },
            "8": {
                "cle": {
                    "unit": "percent",
                    "value": 77.5
                },
                "decote": {
                    "unit": "percent",
                    "value": 23
                }
            },
            "9": {
                "cle": {
                    "unit": "percent",
                    "value": 75.5
                },
                "decote": {
                    "unit": "percent",
                    "value": 25
                }
            },
            "10": {
                "cle": {
                    "unit": "percent",
                    "value": 74
                },
                "decote": {
                    "unit": "percent",
                    "value": 26
                }
            },
            "11": {
                "cle": {
                    "unit": "percent",
                    "value": 73.5
                },
                "decote": {
                    "unit": "percent",
                    "value": 27
                }
            },
            "12": {
                "cle": {
                    "unit": "percent",
                    "value": 72.5
                },
                "decote": {
                    "unit": "percent",
                    "value": 28
                }
            },
            "13": {
                "cle": {
                    "unit": "percent",
                    "value": 70.5
                },
                "decote": {
                    "unit": "percent",
                    "value": 30
                }
            },
            "14": {
                "cle": {
                    "unit": "percent",
                    "value": 69.5
                },
                "decote": {
                    "unit": "percent",
                    "value": 31
                }
            },
            "15": {
                "cle": {
                    "unit": "percent",
                    "value": 68.5
                },
                "decote": {
                    "unit": "percent",
                    "value": 32
                }
            },
            "16": {
                "cle": {
                    "unit": "percent",
                    "value": 67.5
                },
                "decote": {
                    "unit": "percent",
                    "value": 33
                }
            },
            "17": {
                "cle": {
                    "unit": "percent",
                    "value": 66.5
                },
                "decote": {
                    "unit": "percent",
                    "value": 34
                }
            },
            "18": {
                "cle": {
                    "unit": "percent",
                    "value": 65.5
                },
                "decote": {
                    "unit": "percent",
                    "value": 35
                }
            },
            "19": {
                "cle": {
                    "unit": "percent",
                    "value": 64.5
                },
                "decote": {
                    "unit": "percent",
                    "value": 36
                }
            },
            "20": {
                "cle": {
                    "unit": "percent",
                    "value": 63.5
                },
                "decote": {
                    "unit": "percent",
                    "value": 37
                }
            }
        }
    ]
}