{
    "scpi": "Novapierre R\u00c3\u00a9sidentiel",
    "display-name": "Novapierre R\u00c3\u00a9sidentiel",
    "gerant": "Paref Gestion",
    "strategie": "R\u00c3\u00a9sidentiel",
    "distribution-estimee": "",
    "td-2021": "\/",
    "tdvm-2020": 2.07,
    "part-souscription": "1\u00e2\u0080\u00af622,00 \u00e2\u0082\u00ac",
    "part-retrait": "1\u00e2\u0080\u00af460,61 \u00e2\u0082\u00ac",
    "differentiel-souscription-retrait": 9.95,
    "valeur-de-reconstitution": "1\u00e2\u0080\u00af745,00 \u00e2\u0082\u00ac",
    "min-parts-souscription": 5,
    "montant-min-souscription": "8\u00e2\u0080\u00af110,00 \u00e2\u0082\u00ac",
    "delai-de-jouissance": "1 mois",
    "frais-de-gestion": 9.6,
    "versement-programme": false,
    "url": "https:\/\/paref-gestion.com\/scpi\/scpi-residentiel-novapierre-residentiel\/",
    "geographie": "\u00f0\u009f\u0087\u00ab\u00f0\u009f\u0087\u00b7 Paris",
    "capitalisation": 325000000,
    "creation": 1996,
    "endettement": 17.26,
    "displayable": true,
    "featured": "",
    "image-link": 0,
    "documents": {
        "scpi": "Novapierre R\u00c3\u00a9sidentiel",
        "ok": true,
        "dernier-rapport-annuel": "https:\/\/www.paref-gestion.com\/wp-content\/uploads\/2022\/06\/Novapierre_Residentiel_Rapport_Annuel_2021.pdf",
        "dernier-bulletin-en-date": "T1",
        "dernier-bulletin-trimestriel": "https:\/\/www.paref-gestion.com\/wp-content\/uploads\/2022\/05\/BTI-1T2022-Novapierre-Residentiel.pdf",
        "dici": "https:\/\/www.paref-gestion.com\/wp-content\/uploads\/2021\/10\/NOVAPIERRE_RESIDENTIEL_PAREF_GESTION_DICI_2021.pdf",
        "note-dinformations": "https:\/\/www.paref-gestion.com\/wp-content\/uploads\/2020\/04\/Note_d_information_SCPI_Novapierre_Residentiel.pdf"
    },
    "geographies": {
        "scpi": "Novapierre R\u00c3\u00a9sidentiel",
        "ok": true,
        "regions": 2,
        "idf": 98,
        "allemagne": 0,
        "belgique": 0,
        "pays-bas": 0,
        "italie": 0,
        "finlande": 0,
        "irlande": 0,
        "espagne": 0,
        "lituanie": 0,
        "portugal": 0,
        "slovenie": 0,
        "estonie": 0,
        "lettonie": 0,
        "autriche": 0,
        "gde-bretagne": 0,
        "pologne": 0,
        "luxembourg": 0,
        "autres": 0,
        "total": 100
    },
    "actifs": {
        "scpi": "Novapierre R\u00c3\u00a9sidentiel",
        "ok": true,
        "sante": 0,
        "residentiel": 100,
        "commerces": 0,
        "bureaux": 0,
        "logistique": 0,
        "locaux-dactivite": 0,
        "hotels": 0,
        "transports": 0,
        "autre": 0,
        "total": 100,
        "nombre-dactifs": 140
    },
    "performance": {
        "scpi": "Novapierre R\u00c3\u00a9sidentiel",
        "ok": true,
        "annee": 2021,
        "periode": "FY",
        "prix-de-souscription": "1\u00e2\u0080\u00af555,00 \u00e2\u0082\u00ac",
        "prix-de-retrait": "",
        "dividende-brut": "",
        "dividende-net-de-fiscalite-etrangere": "31,00 \u00e2\u0082\u00ac",
        "distribution": 2.11,
        "revalorisation": 6
    },
    "evenements": [
        {
            "scpi": "Novapierre R\u00c3\u00a9sidentiel",
            "ok": true,
            "evenement": "priceUpdate",
            "date": "01\/04\/2021",
            "data": 1555
        },
        {
            "scpi": "Novapierre R\u00c3\u00a9sidentiel",
            "ok": "",
            "evenement": "priceUpdate",
            "date": "01\/04\/2022",
            "data": 1622
        }
    ],
    "descriptions": [
        {
            "scpi": "Novapierre R\u00c3\u00a9sidentiel",
            "ok": true,
            "strategie": "Novapierre R\u00c3\u00a9sidentiel se sp\u00c3\u00a9cialise dans la constitution d\u00e2\u0080\u0099un capital d\u00e2\u0080\u0099immeubles r\u00c3\u00a9sidentiels en r\u00c3\u00a9gion parisienne."
        }
    ]
}